SCRIPTURE INDEX

OLD TESTAMENT

{Boldface entries indicate a passage has been quoted or discussed at length)

Genesis Genesis

1 19, 135 3:13-15 4!

1 60 3:14 42

1:2, 59, 177 315 17, 24, 72, 178
1:2-3 62 3:17-19 24, 43, 50
1:2-5 134 3218-19 44
1:2ff. 62 319 153
1:3 59 3:24 29, 31, 62
1:4 134 414 50
1:10 134 4:16 29, 50
1:12 134 6-9 19
1514-16 98 6:7 30
1.18 134 8:4 30, 50
1:24 40, 134 8:11 62
1:25 134 9:6 23
1:26-28 23 9312-17 57
1:28 60 9313-17 60
31 40, 134-35 W 61

2 19 1-9 188
21-4 135 14 50
2:2-3 59 11:8-9 51

2:6 30 12:1 49
2:8 29 12:1-2 51

2:9 43 12:36 43
2:10-14 30 13:10 25, 52
2:11-12 32 13:18 43
2:12 33 14:13 43
215 43 15:16 55
216-17 196 16 19
2:19-20 39, 43 Ih7 125
3:1-5 41 17:78 206
3:1-6 182 18:4 43

3:7 23 18:8 43

3:8 58, 135 21 19
3:13 182 22:2 ED

297
