Scripture Index 309

 

Hebrews 1 John
11:13 51 109, 110, 111
1h: 37-38 B 24, 72, 198
12:2 146, 196
i2:18-29 190 110, 111
42:22 32, 61 109-10
12:22-23 205 110
12:25-29 169 42, 198
13:10-14 190 110
11, 206
James 42
2:2 104 162
2:25 103
AT 54, 198
5:1-6 121 7 110, 111
3:7-9 1 FAL 110
9 110
I Peter 10 WW
45 9
1:9 24 Jude
1:20-21 116 1-16 113
2:6-8 118 4 108
29 46, 130, 197 6 198
2:9-10 nm 8 108
21 Si 10-13 108
3:20-21 62 16 108
3:22 146 17-9 113
4:7 122
4112-13 122 Revelation
417 122 1 170
1-3 103
2 Peter 151, 166
1:5-8 234 155, 156, 166
1116-18 YM 165
119 134 167,199
211-3 108 46,197
24 198 215
2:10-22 108 134
3:8 166 198
34, 170
1 John 108
213-14 42 108
2:18 110, 112 32, 192
2118-19 109 104, 179
209 11i 192
2:22 110 108
2:22-23 109 34, 51, 192

 
