318 Peradise Restored

Vespasian, 245, 246, 262, 288, 289 Wilderness, 24, 34, 46-47, 50, 187, 270

Voice, 58, 135-36 vs. land, 50-55
Wings, 62, 102, 135
Wandering, 50-52 World, conversion of, 6-7, 9-10, 12,
Warfield, Benjamin, 153, 228, 231 45-46, 103, 106, 114, 124, 126-31,
Water, 18, 19-20, 28, 30-31, 44, 46, 51, 150, 208-09, 212, 214, 217-19, 221,
52, 53, 62, 206, 262 225
Watts, Isaac, 7 Worship, 88-89, 215-18, 225

Western Civilization, 7, 49
Westminster Confession of Faith,230 Zealots, 248-53, 254-55, 267, 287,
Whiston, William, 237, 290 288, 290
