 

Genesis
2:24
13:2

14
24:67
25:1-5

Exodus
21:12
21:14
21:16
22:16
22:18
22:20

Leviticus
18:20
19:19
20:13
20:15-16
20:19
20:27
24:15-16
24:17
25:45-47

SCRIPTURE INDEX

333
63
63
333
333

246
247
247
255
246
246

247
207
247
247
247
246
246
246
90

Old Testament

26 160-61
Numbers

25:20-21 246
Deuteronomy
4:5-11 151
4:6-8 207
8:11-20 151-52
8:18 69, 118
13:6 246
13:10 246

15 322
17:2 246
17:2-13 208
17:6 246
17:7 217
18:10 246
19:16-19 247
21:21 217
22:23-24 247
23:15-16 322-23
24:7 322
25:2-3 255
25:15 284
