172

F Samuel
14:43-45,

Hi Samuel
24:25

T Kings
10:10
12:19
7
22:20-23

H Kings
11-2
N13

4 Chronicles
12:32

Job
40:8

Psalms
2:1-35,
83
83:1-3
83:9-18
110:1

Proverbs
8:36
M4
24:101-12
2a

Isaiah
1:25-27
2:3-5

32:17-18

101

12-13

147

13
55

55
55-56

20
15}

xiv, 91
28

17
47, 50
138-39
146-47

24
24
24

When Justice Is Aborted

45:5-6
45:12
53:3-12
60:17-18
60:21-22
G1:1-4
62:1-3

Jeremiah
13:12-14
14:13
14:13-16
36:9-10
S611-16
36:14-2t
36:22-23
36:24-26
36:27-31
37:21
38:1-6
38:7-13

Ezekiel
5:13-17
14:7-10
33:2-9

Daniel
2:21
3
4
6
12:1-3.

Malachi
3:6

19
18
98
24
24
25
26

89
93

86-87

87-88

95
95

19
55
92-93

17

63
57

62
