174

HT Thessalonians

211-12

I Timothy
42
4:10

Titus
3:5-8

Hebrews
207
89-10

9

9:13-20

9:24-28
HWl6

James
1:22
2214-18

55

47-48
23

17

124
47

62
110-11
MW
47

157
151.52

When Justice Is Aborted
218
3:2-6
4D

T Peer
417

d John
2:3-4
3:22
3:24
5:2-3

I Jon
16

Revelation
20:14-15,
22:14

141

99

153

4
4
4
H4

114

13
4
