170 Inherit the Earth

 

Deuteronomy Psalms
28:43-44 91 25:12-13 60
29:29 20 50:10 12, 21
B1s10-43 162 733-12 42
BO:1-2 74
Judges 1g 121
15
Proverbs
7 Samuel
“79 121
8:15 148 19 125
13:22b 26
‘ 20:14 99, 127
4 22:6 66
4 22:7 86
4 23:1-3 139
4 31 32
Ecclesiastes
+ 1213-14 121
Psabns Lsaiah
241-2 9 61 62, 64
NEW TESTAMENT
Luke
7 3:38 60
35 418-19 63
67 421 63
ot 6:39 33
57 12:48 66, 97
és 15 51
62 2 it
62
67 John
31 ii5  6L
64 112 35, 61, Bt, 82
14:26 31

 

31 16:7 31
