92
9, 102

SCRIPTURE INDEX

OLD TESTAMENT

Exodus
23:27-30
Leviticus
13 & 14
18:6

18:20
20:13

Deuteronomy
11-3
1:3
1:6-49
41:12-17
1:15
4:13
5-26
6:1-9
6:6-7

15,

21:18-21

22:22

22:23-29

27-30

28

28:38

28:47

29:9

31-34

Joshua
2

173

167

117
