Genesis
Lt
bff,
11-2

1:3

1:3ff.
1:5

1:23-24
1:26
1:28
1:28-30

21
2:1-3
2:9ff,
285
2:15-17
217
2:17 - 3:19
218
2:18-25
2:23
2:24

34
3:5,
3:15
3:16
3:21
4:9-16.
4:10
Si
6

SCRIPTURE INDEX

OLD TESTAMENT

96, 207

185

25

299

6,9, 11, 14, 20, 24,
25n.4, 26, 27, 28,
29, 125

260

227

126

138

107, 127, 142, 150
117, 144, 145, 149
200

203

27, 44, 271

27, 79, 233, 264
233

126

145

126

61, 237

233

Genesis
6:9
6:1 iff.
6:18
9:6

25:9
25:27

323

288, 289,
289, 292, 301,
