326 THAT YOU MAY PROSPER

 

Deuteronomy I Samuel
29:8 2 15:3 41
29:9 15, 18, 60, 108, 213 15:22-23 42, 50
30:19 91 17:1-58 72
30:20 144 17:50 R
31 105n.5, 28:3-7 42
31:7 107
1050.5 HE Samuel
109, 110 7 234
‘int 265 3s $8, 82
122 24:15 48
132 1 Kings
199 5:3 203
192 10:1 277
15 10:14 205
122 16:316f, 257
105n.5
106, 108 AT Kings
Sl. 299
10:30 205
61 14:25-27 205
61 22:3, 13 2
107 22:88. 2
65 23:25 2
65
289 I Chronisles
289 .
294 19s
292, 294 :
106 34:3-8 2
67
264 Ezra
263 4 258
211, 302
114 Nehemiah
302 2 266
114 4 258
106 6 258
144 89 31
144 13 258
Esther
168 418, 151
61 7-10 115
7:10 151
1 209 8-9 7

4218-22 109 9:1-19 116
