Revelation
4

Ad
4-2?
42

£6

4:8, 11
Sil

5:1,
51-3

5:5
56-14
5:7, 9

6

6:10

6:17

7

79
7A3-17
B11

81-2

8:1 ~ 14:20

259
259

253

259

89

259

260

6

259

260

260

260

260

260, 261
260

261, 262, 263
263

262

263

210

253

8:7, 8, 10, 12263, 264

Scripture Index

Revelation

a8

B14

9:1, 13

1:14

1:15

14:6, 8, 9, 15,
17, 18

14:9

14108.

15:1 - 16:1

15:1 - 22:21

15:3

15:3-4

15:4

15:8

16:16.

17:8

20

21-22

22:6

BAT

264
263, 264
263
263
263

263
264
264
265
253
265
265
266
169
308
169
266
254
254
266

333
