372

30:15-16
31:14-15
32

32:6
32:26-29
32:27
32:28
32:29
33:4-6
34:10-16
34:20
34:20-21
34:28
34:29

35

35:2
35:3
35:20-29
36:3
36:5-7
38

38:24
38:24-25
38:25
38:25-26
38:26
40:17
40:17-30

Leviticus
1
3:16-17
4:12
4:23
4:28
4:32

 

SANCTIONS AND DOMINION

22, 31
144

21

85

57

59

85, 90
90

17
292-93
83, 93
83

17

17

17

144
144
18-19
117

18

18, 19-20
19

17

355

18, 118
17, 21, 24, 318
16, 20n
115

358

163

161
117n
117n
1170
95n
95n, 96

7:8

7:32
8:17
8:24-26
9:11
10:1-2

10:6
10:12
10:15
11:3-7
11:32-33
16:14-15
21:9
22:10
22:13
22:18
22:21-23
25
25:32-33
26:3-12
26:17
26:28-29
27:28
27:6
27:9-15
27:15
27:19-20
27:25
27:26-27
27:28-29
27:32
35:7

Numbers
il
14
1:2-3

160

142

161

121

161

57, 62, 109,
324

324

62

142

389

332

59

250

31n

31n

252

249

234

38

100

199
209n-210n
73, 358
97, 346, 365
95

159

236

97n

89

159, 193
274

165

20n
14
28
