374

10:14
10:26-28
1k:
11:1-2
11:1-3
11:4
14:4-6
11:6
11:10-15
11:17-18
11:19-20
11:22-23
11:31
11:31-33
11:33.
12:2
12:12-15
13:1-2
13:2
13:6
13:8
13:17-20
13:27-28
13:32-33
14
14:1-2
14:3-4
14:7-9
14:10-12
14:13-16
14:18-19
14:20
14:21-23
14:24
14:29-30
14:32
14:33
14:36-37

SANCTIONS AND DOMINION

32, 33, 285
189
130
194
125
363
130
332
130
130
131
131
132n
131-32, 363-64
194
132
133
133

40

20

20
133-34
134
134
22, 194
134-35
135
135
135
135
135
136
136

20

136
175
136
136

14:39-40
14:41-43
14:43-45
14:45
15:2-5
15:9-10
15:18-20
15:32-36
16:1
16:1-3
16:3
16:5-7
16:8-10
16:12-14
16:18
16:26
16:28-30
16:31-33
16:32
16:35
16:41
16:47
16:49
17:8-10
17:12-13
18:14
18:5
18:6-7
18:8
18:9-10
18:11-13
18:15
18:15-16
18:16
18:18-19
18:20-21
18:20-30
18:23

136
136-37
137

28, 192, 204
140

142

142

144

149
68-69
149

69

70

149

149

152

70, 107, 155
69

152, 232
153
152-53
153,

153

153

153

157

158

158

160
158-59, 160
159

89

159, 355
97n

160
163-64
65

165
