Scripture Index 375

 

 

18:24 165 22:5-6 204
18:26-27 66-67 22:12 206, 211

166 22:16-22 212

166 22:17 204

175 22:18 214

176 22:19-20 206

188 22:22 205-206

176 22:29 212

176 22:32 211

176 22:34-35 211

187 23:7 214

175 23:8-9 206

177, 188 23:10 335

199 23:13 206

199 23:19-20 207

175 23:21 203, 213
21 7, 23 23:23 203-204
21:1-3 192-93, 251 23:24-28 207
24:3 279 23:30 208
21:4-5 194 24:1 208
21:6-7 194-95 24:5-11 208
21:8-9 195 24:10 211
21:10-13 198 24:10-13 208
21:14 191 25:1-2 204
21:16-18 = 198 25:1-3 213

217 25:5-6 204

199 25:7-9 215

335 25:16-18 265

199, 204 25:17 23, 215
21:27-28 191-92 26:1-2 217
21:29 199 26:2-51 276
21:31 199 26:10-11 232-33

200 26:33 356

217 26:51 24, 217

201 26:52-56 216, 276

217 26:59 338, 342, 357

204 26:62 24

 

334-35 27:3 232
