13:1-5
18:1
18:20-21
18:20-22
19:3-6
19:11-13
20:8
20:12-15
20:14
20:16-18
21:1-9
21:10-14
21:15-17

21:17
21:18-21
22:21
28:3

23:8
23:14
23:18
23:21-22
23:21-23
23:24-25
24:1
25:5-6
25:6
28:41
29:7
29:12-15
29:18-20
29:29
31:4
31:23
34:7

Scripture Index

103-104, 322 Joshua
35-36 2:10

70 2:10-11
404, 105, 113 3:4

300 4:12
301 4:23

40 5:5

266 5:7

266

268-69 6:17
306 7:9

267 9

85, 235-36, 9:10
314 10:13
65, 95, 96 12:6-7
237 14:6-7
250n 14:7

199 14:10-11
199 15:63
23 16:1-4
249 17:12-13
193 17:13-18
250 18:2-3
304 18:2-6
246 18:6
239 20:3-6
84 20:7-8
271 22

201n 23:1

109 23:6
109-10

190 Judges
201n 4:38

39 417
20, 175 5:15-16

377

201n, 331

276

33, 60

285

331-32

8, 23, 155, 353
16n, 192, 286,
295

»193-94

198

364
201n
191

192
290n

20

20

290

223

290

7, 223-24
290
225-26
229

302
299-300
285

20

39

288
246
285
