378

5:16-17
5:24
6:39-40
7:3

Ruth
2:20
4:20

I Samuel
4
6:7-9
8:7-8
9:21
17:12
17:14

II Samuel
1:18
5:6-7
6
6:6-7
6:12
6:17
17:27
18:1
19:34-35
2431-4

I Kings
11:41
18:21
18:40
21:5-9
21:19
21:23
22:12-18
22:19-23

SANCTIONS AND DOMINION

30, 289
246
107

41

303
37

110
107
321
43
84
84

191
670
64
34
670
110
38
39
38
42

191

104
104, 112
235n
118, 285
235

lll

Ail

22:24
22:26-27
22:28
22:30
22:34
22:38

II Kings
6:28-30
22:8

I Chronicles
9:19
15:15-16
21:1-6
21:8
21:12-14
29:29

II Chronicles
9:29
12:15
18:19-20
30:18-20

Ezra
2:36-39
2:36-42
2:40-42
6:12

Nehemiah
9:22
10:36
10:38-39
12:47

112
112
113
118
113
113, 235n

210n,
61

233
73
43
44
44
191

191
191
43
122n

66n
73

66n
108

201n
84
65-66
66
