Exodus
22:21
22:21-27
22:22
22:22-24
22:24
22:25
22:25-27
22:26-27
22:27
22:28
22;28-31
22:29-30
22:30
22:31
23:1-3
23:1-9
23:2
23:3
23:4-5
23:6-8
23:8
23:9
2310-13
23-10-19
23:14-19
23:17
23:19
23:20-33
23:29
24:1-8
24:3
24:4
24:7
24:9-11
24:12
25:16
28:42f.
30:14-16
30:12
34:12-17
31:18

Seripture tndex

164
66, 1658.

168f.

66 (outlined), 1678.
178

160

1698.

171.

Bin,

156, 175f.

1821.

66 (outlined), 75, 184.
184i,

229

viii, 1908, 2728.
58, 66, 194f., 200
183

59

46, 51, 61

46

46

59

46, 61

22n.

63n.

126n., 2258.

227

75

20

Exodus

32
32:2-4
32:6
32:10
Shit
32:19
32:20
32:22
33:7-41
B41
3412-17
34:13-17
54:13-1B
34:14
34:18
34:23
34:24
34:26
34:28
33:1-3
35:3
38:258f.

Leviticus
1-7
4
4:3
413
4:22
4:27
5:14-16
Gl-5
Gi1-7
TA?
8:23-24
9:24-10:2

10:2

10:11

li

W1-15

11-24

287

59, 195, 210
62

62, 155
157

137

137

145

157

51

20, 46
59n.

62

154f,
33n., 145
59n.

229

185
1908, 2728.
20

75

153n

231

Si
266
266
266
266
266
135
135
268
188
380
153n.
158
213
51

56
201f. (outlined)
