Scripture Index 289

 

Numbers Numbers
5:8 36 35:6 101n.
6 234 3510-34 97K.
72 54 35:16-21 97
8:16f. 55 35:19 99n.
10:29-11:30 52 35:21 99n,
cit 52 35:24-25 98
116m, 54 35:25 93

58 35:27 99n,

1578. 35:31 97, 116

59 35:32-34 99

13n. 35:33 99n.

161n.

210, 212 Deuteronomy

164 16-18 52

163 1:9 52

211, 229n, 19-18 54

57 1:15 53
19:22 i4n. AD 52, 52n.
20:22-21:3 99n, 48 10
20:28 35n. 49 214
21:1-8 35. 4:13 22n., 46
21:44. 35n. 5:1 80
224 40, 52n. 6-26 19987, (outlined)
22:29 1576, 6-11 200
24:20 206 2
25 158 214
25:6 40 a4
25:8 86 210
2511-13 86 46
26:10-11 126n. 201 (outlined)
QT 54 210
QTA-Ad 53, 157 7
QTAT 267 153
2912-34 190 Q7
31 229n. 134
31:16 158 27
31:26-47 89 231
32:17 165n. 162
32:34. 30n. 190, 202 (outlined)
33:4 40 129, 165, 1908, 2724.

35 93 241

 
