290 The Law of the Covenant

Deuteronomy Deuteronomy
14:22-29 240 21:17 164
14:93 210, 214 21:18f 24

14:96 192 21:18-21 106
14:28-29 135, 211, 220 22 154

15 76 22:6-7 2n., 20
18:1-6 135 22:8 15, 129
15:1-16:17 203 (outlined) 22:9 163

{5:12 84 22:9-23:14 204 (outlined)
1512-15 33, 76, 215 22:12 16in,
15:12-16 43 22:13H, 150

15:17 8 2219-21 79, 2578.
15:18 43 22:24 112
15:19-20 21 22:25 149
16:10 229 22:25-27 1488.
{6:11 185 22:28-29 31, 149
1619-14 211 22:29 148
16:16 185, 229 22:30 161n,
16:17 229 23:2 150
16:18-18:22 67, 203 (outlined) 239-14 132
16:19 Sin. 23:14 229

17:6 153, 264 23:15-24:7 205 (outlined)
17:8-13 174, 212 23:19 158

17:9 177, 216 23:20 158

S712 104, 141 2401-3 150
17:47 238 24:6 262

17:18 213, 216 24:6-13 15988.
18:6 241 24:7 104
18:10 18 24:8-25:4 205 (outlined)
1810-14 153 24:16 20n., 126
19:1-22:8 -203f. (outlined) 24:17 160
19:1-18 978. 25:1-3 3

19:2 239 25:3 180
1911-13 178 25:4 16

19:12 98 25:5-6 54

19:14 69. 255-10 156

19:18 22n, Q5:11-12 1188.
1915-21 168, 1768. Witt 189
20:19-20 Qn. 26:14 211
Die. 102 27:21 153

22 54 28 66, 194

PL10-14 79n., 89 28:17-19 163
