Scripture Index

 

 

J Corinthians 1 Timathy
275 25
att 5:3
B2n, 5:16
260 5:17
79n, 5217-18
21tf 5.18
212
6:
185 ‘0
212 .
166, 210 2 Timoity
316-17
2 Corinthians
1! 260 Hebrews
111-8 63, 153
11:2-3 151, 257
1124 270
Gatatians
4 234
4d. 208, 275
4:4 47
49-40 181
lle. 274
42681. 192
5:10 171
Ephesians to
Q1122 14 :
4:28 206 ae
5:22-23 145 11.39.40
5:25 2 12:29
Philippians pomes
a
RT Bin. a0
Colossians 2:23
Qt4 47 2:28
2:16 181 31-12
35 13 Bld
I Timothy I Peter

1:8 6n. 18

200

106, 196n.

106n.

16, 17, 106, 106n.
24

106n,

18

209n.
275
274
96n.
102
209
40
209
XX
234
234
234
81n.
234
255
234
158

18
82n.
20n.
167
216

234, 226

297
