Micah
6:11

Matthew
4:34
5:45
6:11
10:28
12:36-38
17:27
20:10-15
25:20 1
25:24-27

Mark
2:27
13:5

Luke
12:47-48

Romans
5:8
6:23

I Corinthians
3:12

50

81
43
82
214
21
48
178

141

210

78-79, 142

46
46

XX

Scripture Index 289

Ephesians

2:8-9 x

2:8-10 46

2:10 x

4:14 32
I Thessalonians

3:10 101, 145

3:10-14 212
I Timothy

6:10 47
James

2:20 x

2:24 x

4:1 148, 241

4l7 241
[John

1:9 47

4:1 17
Revelation

13:16-17 106
