Fascism &, 198

final judgment, 220

flow of funds, 230-31, 239,
248-52

formula, 150, 243-44

fractional reserves, 149, 161

freedom & authority, 197-98

gold, 150

good intentions, 189, 192-93,
226

Hidden Hand, 84-85

hierarchy, 218

incoherent, 236-37

individualistic language, 161

interest, 179-80, 256

Jewish Question, 222-23

Keynes &, 120, 131-82, 139

machines, 170

magic pill, 149, 199

majority rule, 193

Marx &, 180, 183

millennium, 224

mistakes of, 244-46

money, 147

money-changers, 199

moralist, 82-84, 212-13

nationalization, 185, 198

philosophy of, 28-29

poverty theory, 216

pragmatist?, 82-84

productivity, 216

productivity estimate, 173

productivity estimates, 110

Protocols of Zion, 222

public interest, 192, 194

purchasing power, 130, 135,
241

ratio, 150

Index

293

Real Credit, 243
Salvation Army, 213-14
sanctions, 209-25
secrecy, 34
smash-up, 218-19
“socialism,” 197
systems, 210
thrift, 132-35
“tickets,” 155, 166, 231-32
underconsumption, 165,
230, 252-53

underproduction, 181-82
wages, 172-73
work, 174-75

dross, 49-50

economic growth, 121

economics of scale, 129

effective demand, 195-97

Eisenhower, Dwight, 6

elastic currency, xvi

Eliot, T. $., 37

elite, 190-91

Emperor's New Clothes, xxix-
XXX

England, 137

entrepreneur, 119, 120

entrepreneurs, 76, 128

entrepreneurship, 175-77

entropy, 125

Establishment, xiii-xiv, xxxii, 6

ethics, 212-13

exploitation theory, 247

expropriation, 217

factory, 115-16
fads, xv
faith, xi
