316
J Samuel

17:45-47

1 Kings
8:6

12:21-24
12:25-33
18:21

HT Kings

15:19-20

Psaims
2:1-3
20:6-8
20:7-8
25:12-13
4824-2
72:8-11

110:1
110:1-2
110:2-3

Proverbs.

13:22
241

Isaiah
2:2-3
2:2-4

10:5
10:5-6
10:13-14
10:15-22
26:1-6
32

28, 61
102
212
159
59

28
250
212

28

285,

217

Healer of the Nations

Isaiah
32:3-8
32:16-18
40:15
45:9
45:22-24
65:20

Jeremiah
6:28
6:13-14

32

42:11-16

Ezekiel

33:16

Daniel

2:21
2:35
2:39
2:44
4:35
8:5-7
8:27

Hosea
4:7

Joel
3:9-13
3:16

Micah
4:3
76

Haggai
1:6-10

Zechariah
4:6

207
105
200
107
104-5
145

37-38

188

249

23
4
87
23
100

176

126

125-26
126

121
122

193

7
