Scripture Index

NEW TESTAMENT
John
254 1:12-13
276-77 3:36
122 12:46
19, 81, 167, 200, 254 13:2
207 13:34-35
211 15:12
200 1720-22
161 17:20-23
177 18:1
275
247 Acts
20, 123 2
155-56
ato 2:38
91-92, 215 7
252 15
61, 81, 210, 254 16:51-34
3-4, 46, 49, 52, 17:24
150-51, 259 17:25
125 17:26
179
93, 215 Romans
140 1:19-22
93, 143, 252 1:20
gi 2:14-15
9, 57, 142 48
511-12
7
234 8:18-23
8:29
12
161 12:3-8
175 13:1-7
14:17
14:19
51, 139, 158 16:20

317

45
140
276
260
261
261
46, 76
259
260
