324

Europe, 13, 77

evangelism, 84-85, 128, 157, 280;
sec also revival

evolutionism, 17, 89, 110

exclusion, 25, 145-46, 262

experts, 277, 295

Export-Import Bank, 226

factions, 12

failure of nerve, 106, 242.

family,-5, 43

family worship, 87

Far East, 221

Farewell Address, 1-15

fear, 245-46

Federalist Papers, 13

federation, 60, 63

felony, 149

feudalism, 60

Feuerbach, Ludwig, 145-46

Fisher, Bobby, 239

flag, 57-58, 200, 201

Hlexibility, 225

Foggy Bottom, 192

foolish, 207

footstool, 24, 40, 96

Foreign Affairs, 181

foreign aid
abolition of, 228
banks &, 223-26
bureaucratic, 220
economic growth, 222
government-to-government, 220
ineffective, 222
private, 229
Satan’s deception, 218-19
small, 222-23
subsidizing evil, 220-23
Third World defined, 222

foreign policy
anarchism, 74; see also isolationism
books about, 3
bureaucracy, 191

Healer of the Nations

Christian internationalism, 46-47,
73, 94, 159, 230, 259-74
conspiracies, 188-89
diplomats &, 17-18
domestic policy &
elite, 236
exam, 191
Foggy Bottom, i192
goal of, 102
God over, 40
military policy, 129
neutrality myth, 37
old boy network, xi, 299
one person, 297-98
peace, 12t
repentance, 39
reforms, 301-6
supernatural, 240
war by other means, 100
war of Gad, 102
weak-kneed, 177
Foreign Service
exam, 191
representation, 171
see also elite
formula (natural law), 7
France, 11-14, 55
freedom, 36, 58
freedom fighters, 39-40
Freedom from War, 14
French Revolution, 13-14, 55
friends (allies), 206-7, 210-12, 227
fundamentalism, 273, 285-86;
see also escape religion

garden, 32, 81, 106
geography, 148

General Electric Corp., 225
gentiles, 24

Gesell, Gerhard, x
Gethsemene, 260

Gibeah, 58

Glorious Revolution, 54
