MILLENNIALISM AND SOCIAL THEORY

 

223-224 54:1-3 294-295
328 54:11-17 295
329 56:12 131
98 63:15-18 301
297 65:17-23 96, 236
226-227 65:17-24 6
141 65:17-25 213-214
158-59 65:19 98-99, 102
134 65:20 61, 98-106, 281
103:8-13 6-7 65:21-23 106
106:15 55
110 20, 21 Jeremiah
110:1-2 280 29:7 178
31:31-34 279
Proverbs 32:37-42 226
13:22 109, 251, 295
16:18 334 Ezekiel
24:23 175 30:6 330
25:22 160
28:21 175 Daniel
2:34:35, 149, 328
Ecclesiastes 5:29 128
12:13-14 327 6:1 128
8 334
Isaiah
1:25-28 153 Hosea
2:1-5 294 10:8 292
232-4 246
10:20-27 224-295 Jonah
11:12 318 3:4 118
25:2-10 99-100 3:5-10 119
335 4:1 119
148
213 Micah
96 4:3-4 179
185
100 Zechariah

 

294 13:8-9 271
