TABLE OF CONTENTS

Preface 6... etn nee ix
Introduction 6... 6. te ee tr tee 1
1. Eschatology and the Millennium

 
 

2. What Is Social Theory? . 2.0.6... 0 eee ete eee 30
3. Covenantal Progress 2.0... eee eee 52
4, Pessimillennialism 0.0... 0.0.0 cece eee eee eee 71
5. The Society of the Future... 2.0.6). ee eee eee 96
6. Time Enough «2.0... c cece ce ees 127
7. Denying God’s Predictable Sanctions in History ........ . 155
8. Historical Sanctions: An Inescapable Concept .......... 185
9. The Sociology of Suffering ......... 0.0.0 e eee eee 210
10. Pietistic Postmillennialism «2.00.00. .00 0000 ee eae 238
11. Will God Disinherit Christ's Church? .............0. 249
12. Our Blessed Earthly Hope in History .............5- 279
13. What Is to Be Done? «1.6... ec eee 301
Conclusion 2... eee eee 327
Appendix: The Lawyer and the Trust........... 00.000 e ee 341
For Further Reading... 2.2.0.6 eee 358

Scripture Index 369
Index 2 tenes 374
About the Author 2... 0... 394

 
