194

Ezekiel
16
32:7-8

Amos

8:9

 

28:16-20

Mark
7:13
Take

16:13-17
23:34

John
1:2

 

16

12, 12-13

12

84
164
68
179
175,
39
87-38.
133
xii

VW

VW

The Judeo-Christian Tradition

Micah

6:6-8 x
Habakkuk

2:4 x

New Testament

 

 

7 159
8 159
22:3 159
2823-2847
Romans
1:16 180
xiv
2211-13 174
2:17-29 xiv
2:25-29 96
B:7-11 178
5:8-10 174
174
180
lo
5
53
167
8
89
x
6
10
95
xiv
xii
11 Corinthians
6:2 174
