278

Matthew
5:22

 

13:16f,

 

23:27

Mark
6:13

 

Ads

14:16, 17

Romans
15

 

3:15
3:19

414
S:1

xxvii

19

272

The Covenant Enforced
NEW TESTAMENT
5:36f,
8:29
10:9
12:4
126
14
1 Corinthians
4:13

Galatians
3
3:10
3:13
Ephesians
1:6
411
5:6
1 Thessalonians
53
2 Thessalonians
233-8
B1-12

32
244

179

xxxvill

189
