412

Proverbs
10:4

 

27:238
28:20
28:22,
28:6
29
29:7
29:21

Ecclesiastes
2:16

Isaiah
1

Matthew

An Introduction to Christian Economics

Isaiah
216 L:21ff
216 1:25
216 1:26ff
21én 6.9
2160 30:23
2160 56:12
216n, 217n 64:6
216n
382 Jeremiah
21In 2HE
216n E
217 15:10b
216 17:9
216n 30
5 31
216n 34:14
2160 50:34
27a, 2200
160 Ezekiel
216 Bee
17n .
ie ee
2470 :
2160 22:18
22:18
ihe 217, 364 34:22
26. 36: 248
o 46:18
207n *
247m Hosea
2:4F
217
318 2B
216
ze, Amos
214 2:10
217m SALE
220n Micah
4
217 6:1ff
Haggai
4ff, 2120 2:8
NEW TESTAMENT
Matthew
215n 21:13
218 21:33
218 22: 1788
63 24: 141
368 24 17E
342 25
380 25: 141
367 25:27
219n
221n, 367 Mark
222 4:25
220 115i
222n

xii 4, AD, 156, 366, 391

2120
342
2180
91, 102
218

214n, 366n

372
367
219n,
367
222
204

3670,

223
222n
