156 THE GREAT TRIBULATION

Psalms Psalms
18:15 84 105:18-19 110
33:7 104 106:9 105
34:15-17 110 109 81, 110
35 81 110 59
35:1-8 110 115:4 118
35:17 80 115:5-8 118
35:22-26 110 121:5-7 132
36:6 104 13515 118
37:4-5 110 135:16-18 118
45:3-5 69f. 137 81
46 110 137:7 12
46:8 78, 133 137:8-9 110
475 94 139:19-24 110
50:14-15 110 140 81
58 81 140:6-11 110
59 81 148:7 105
59:12-13 110

60:2 84 Proverbs

68 81 3:20 105
68:1-4 110 8:24 105
68:17 112 8:36 109
69 81 11 109
69:22-28 110 27:20 109
73 81 27:20 109
74:10 80 30:17 102
7116 105

79 81 Ecclesiastes
79:5 80 12:2 84
80:4 80

83 81, 110 Isaiah

88:11 109 2 85,
89:46 80. 2: Qed 49
90:13 80 Sil-7 85
91:1-6 131 5:30 84
94 4110 10:5-14 111
94:3-4 80 Wat 59
102:25-26 84 13:6 140
104:3 23 13:9 140

104:15 76 13:9-10 18f., 135
