SCRIPTURE INDEX 157

 

Jeremiah
101 6:17 94
a4 6:22 tit
84 7:9-10 120
101 7:30 il
100 7:33-34 102
in 9:15 100
lit 10:22 tit
23 13:20 Lit
B 13:27 i
85 5: 102
84 132
101 102
St 59
6 100
84 it
101 itl
19 rr
118 102
85 i
85 ttt
104 111
132 98
130 108
4 98
105
84 Lamentations
94 3:5 100
120 3:19 100
105 4:19 102
ih
Ezckicl

14 ti
ut 1:24 109
118 1:26-28 70
ih 2:3-10 56
98 3:13 109
102 4:10 74
at 51-12 1468.

 

94, 111 Sl 11
