the second, 73

the third, 74

the fourth, 76

the fifth, 80

the sixth, 83

the seventh, 88
seals, the seven, 64
Second Adam, 25, 55, 62
Serand Coming, 17, 36
“seven,” 90
sovereignty, 132
symbolism, biblical, 67
synagogue, 26

Tacitus, 136
Temple, the, 58, 89
destruction of the, 4-7, 11, 12,
16, 21, 67
‘Ten Commandments, 54

woex 169

tongues, 44
Tribulation, 14, 17, 48, 52
‘Trumpet

the first, 96

the second, 97

the third, 99

the fourth, 101, 131

the fifth, 104

the sixth, 109, 137, 139

the seventh, #21
‘Trampet-judgments, 96, 123
trumpets, significance of, 94, 95

vengeance, 48
war, 8, 73

Wormwood, 100
worship, 92, 93, 110
