SCRIPTURE INDEX
(Prepared by Robert S. Nance)

Genesis Deateronomy
1517 90 41 90
35:22 1850 8:11-17 i”
16:8 1851 8:18 I”
9 138n 1818-22 ix
7:11 188n
i 28:1-14 xxxi
33:6 1330
1 133
8:22 7
94 77 Joshua
96 WW 13-22 1380
924 177
10:23 7 2 Kings
iat in 21:1213 120
18:21-22 90 :
141920 «90
19:9 90 J Chronicles:
1916-18 90 28 1850
28:43 1 19:94 138n,
27:16 1330
Levitious
266 40 Ezra
26:22 40 12:16-19 rc)
Numbera Nehemiah
1 1380 111-8 12
2 1331
1314 1830
2% 1330 Job
34 188n. 22:14 90

189
