72 Covenant Sequence in Leviticus and Deuteronomy

 

Leviticus Leviticus
1-7 15, 18, 22, 25, 26 23 17, 21, 36-38, 41-42,
2:4-10 23 52, 56
% 24-27 17, 22, 39-41, 52, 56
51 25 41
15, 22, 24-25 2 53
15
34 Nusnbers
23 1-36 9-10
15 i0 38
18, 25-33 11:16 44
18, 26-29 12 58
28 15 65
18, 28, 29 7 10
10-16 18
10 18, 28, 29 Deuteronomy
10:1-2 15 1-34 10, 57-69
11-16 16, 30-33, 62 131-8 57, 58
13 st 1:6-4:40 4
15:18 32 1:6-4:43 57, 58-59
16 37 1:9-18 4
16:1 15 1:19-12:31 4
17-22 16, 19-21, 33-36, 4:26 4
43, 62 4:44-26:19 57, 59-67
17:7-18:28 35 5:1-26:19 4
20-21, 43-56 6-11 57, 60-61
49 12-13 61
49 13 62
49-50 14:1-21 61-62, 65
sf 14:21-16:17 62-63
at 16:18-18:22 63
51 19:1-22:8 64
5I 22:9-23:14 64.65
52-54 22:9-11 52
53-54 22:23-27 53
54 23:15-24:7 66
58 24:8-25:3 66
85 25:4-26:19 66-67
55 25:13-15 56
56 27-30 57, 67-68
56 27 4

 

17, 35-36 28 4
