 

Acts
1316

13:26
15:29

Romans
1:23

1 Corinthians
9:9

W:7

7, 68-69

AAR RRO

13

Scripture Index

T Samuel
26

I Kings
18:34

94:1-3
21:7-13

2 Kings
3:19-27

NEW TESTAMENT

I Timothy
5:18

Hebrews
3:4

Revelation

1-22
4-5

27

28
64
64

64

67

58

41-42

73
