76 Covenant Sequence in Leviticus and Deuteronomy

Nadab, 18

Name of God, 11, 19-21, 62
Nazirite, 54

North, Gary, 1, 5
Numbers, summary, 10

Passover, and blood anointing, 27,
28, 32

Peace Offering, 22, 25, 50-51

Pentateuch, 6

Priests, 26-29, 35-36

Purification Offering, 22, 23, 25

Revelation, outline, 41

Sabbath, 11, 21, 36-38, 49, 55, 58,
62-63

Sacrifices, 22-25

Sanctions, 8, 21

Seventy, 44

Slaves, 63

Slave girl, 53

Stewards of house, 58

Stipulations, 8
Sutton, Ray R., 3, 5, 6

Tabernacle, 18
symbol of people, 22

Tassel, 65

Ten commandments, 49ff., 55, 60-67
shadowed in Dt. 23:15~24:4?, 66
summary, 10-13

Theft, 12, 13

Third commandment, 11, 19-21, 45

Third day, 50, 52

Third year, 52, 54

Tithes, 63

Trumpets, 38

Vows, 39

War camp, 65
Wenham, Gordon, 22, 53
Witcheraft, 54

Witness bearing, 13
Wright, David P., 50
