 

95
105
31

31
39
138
1

34

141, 157
19
134, 138
54

106-107
40

29

5

29

14

5

81

5

14

Scripture Index

Deuteronomy
31:6

Joshua
1:2
15
1:6-7
1:7-8
1:8
2:11
6:23
7:6-15
7:21

10:25
14:12

23:6

23:8

24:14

24:15

171

70

103

104

7

31

6, 97, 103
xvi

108

95
