 

1 Chronicles
12:19-40

 

29:12

2 Chronicles
Sil

 

Scripture Index

2 Chronicles

32:7
36:11-21

Ezra
Slt

Nehemiah
4
11-11
1:2-11
4:4-11
1:11
1:20
21
21-5
21-8
231-20
24
25-6
2:6-9
2:7-8
2:9
2:12
2317-18
2:18
2:19-20
2:20
321-32
4:1-23
4:2

4:14-20

4:21-23

4:23

5:14-19

5:15

5:19

6:1-14

6:9

6:11

6:14

6:15-16

70
47

69

173
