174 The Changing of the Guard

 

Nehemiah Poalms
94 5
% 10
96 15, 16, 49, 103
8 9
0 76
50 36
96 10
a 10
oe 10

92
96
92
57
59
96 39
96 Fo
57 95
96 70
57, 98 10
26
59
82 69:13-19 125
69 69:20-28 125
57, 69 7331-28 95, 125
82 7:67 10
39 82:8 rm
83:1-18 125
85:9-11 55
82 89:34 28
70 91:5 70
38 91:10 15
83 103:9 i
68 103:19 110-111
68 110:1-3 12
60 Un78 98
54 111:10 4
92 115:13 54
82 118:6 70
119:9-12 29
119:89 128
10 119:90 123
95 119:97-104 66
58 119:105 97

 

49 119:105-112 6B
