176 The Changing of the Guard

  

 

Jeremiah Daniel
17:10-11 56 5:24 12
26:19 54 63 58, 80
29:13 93 58
37:11-16 82 78
30:11-12 82 79, 83
44:1-30 158 68
69, 95
Lomentations 79
5:19 92 83
: 39
Ezekiel 79
214 83 3
3:8-9 6
1-5: 158
16:49 35 82
16:50 35 3
22:30 40 82
28:13 45 6:4 69
28:14 45
33:2-6 128 Amos
43:24 39 51-7 26
48:33 138
Jonah
Daniel 19 54
1:2-20 21 .
1:3-20 58 Micah
1:4 21, 58, 79 aw 67
18 83
1:8-16 157
112-1379 26, 54
171879 56
1:17:20 79
1:18 21, 58
1:20 21, 58, 79 es
21418 79
224 12 Zechariah
5:12 58, 80 8:16 55
51314 79 8:19 55
513-28 79
54 58, 80 Malachi

5:16-17 37 1:8-10 él
