1 Corinthians
2:3
2:4
2:18
4:6
4:19
531-13
5:1-13
5:6
61-11
6:3
10:1-11
10:6
10:11
10:26
Tht
44:17-34
11:23-31
11:23-34
41:24
12:4-7
12:12
1231
131-3
13:6
14:8
15:3-4
15:24
15:25-27
15:33
15:50
15:57
15:58
16:13
16:13-14

2 Corinthians
3:17
4:2
5:7
5:17
5:20
6:14-18

106
106
129
97, 98, 102
72

19
129
36
129
39
101
105
105
18
102
129
19
110
38
130
130
61

7

55
128
82-83
xvii
xvii
101
xvi
103
68, 80
66-77
66-77

40, 95
56
83
52
39, 61
87

Scripture Index
2 Corinthians
10:3-6

10:5

12:0-10

Galatians
1:6
1:6-9
1:9
235-8
2:9-11
2:19
2:21
3:1
3:3-5
3:6
3:10
3:13
3:21
3:24
5:1
5:1
6:7
6:9

Ephesians
4:11
1:19
24
2:49
2:8
2:9
2:10
3:14-21
4:11-13
4:15

S:6-11
5:14
6:1-4
6:4
6:10-17

72, 90, 108
52
a

179
