SCRIPTURE INDEX (Selected)

Old Testament
Genesis 75 186
o4 219 10:12-13 108, 150, 266
13 122, 149f, 228, 294, 305
Exodus 13:11 63
21:12:25, 260 13:13-1¢ 256
29-30 14:21 98
21:17 128 17:2-7 247
22:18, 19 260 176 247
178-9 137F
enn 2s
we ba 1815-19 180
18:23 127
19:13, 21-254
18:24-30 4
19:15, 247
19:14 127
19:19 315
20:7-8 121
19:20 63
20:22-26 108
23.29 181 21:22 256
" 30:11, 14 250
a " 27 Jestasa
15:39 i 833,35 144
35:31-32 2580, 263 1 Samuel
35:33-34 315 rm
16:7 187
Deuteronomy 1K
45 101 gs
42 11, 83, 192, 253, helt 320
311, 325 731 320
4:4, 8 150 .
45-8 3, 103, 112, 114, 2 Chronicles
121, 127, 211 19:11 203
6:24 150 26 184, 188

327
