276 BACKWARD, CHRISTIAN SOLDIERS?

Acts 6:3 He
614 124 6:5 He
25:11 119 6:4 U8
Romans 12 15,135
6:18 89 15:24-25 46
79-12 4 15:28 235
12:1 x 15:51-52 232
13:1-7 127 | Thessalonians
13:8 54 4:15-17 231
(Corinthians | Timothy

3:2 x 31-7 174
SMt-15 235 3:4-5 124

6 38 3:8-13 174

6:2 U7 3:12 124
