James
Ast
4:27
2214-26

T Peter
1316
3:6
3:18
3:5

2 Peter
dl

J John
1:3

209
81, 261, 205
193, 199

205
208
217
208

209

194

Scripture Index

J John
3:4
3:16

 

 

242
205
205
227

Q14

196
xiii
245
194

283
