uit ‘THe DispossEsseD

Appendix 1: Do’s and Don’t’s ..........00 00052 e eee eee 239
Appendix 2: Understanding the Story of the

Gerasene Demoniac by James B. Jordan ...... 243
End Notes........ 251

  
 

-277
- 285

Scripture Index .
Subject Index .....
