248

Matthew
3:9
a4
4:10
4:16
5:13-15
5213-16
5:14
5:17-20
5:25
5:45
6:9
6:10
6:11
6:24
a
10:10
10:18
12:25-26
14:3-4
15:11
16:18
16:19
17:24-27
17:27
18
18:15
18:15-18
18:15-20
18:17
21:33-46
21:43
22:15-22
22:21

 

24:6-7
24:29
24:45-46
24:50
26:63

Ruler of the Nations

NEW TESTAMENT

96

124

4, 120, 153, 154, 174
16, 34, 44, 102, 174
109

11

76, 135

182

16, 102

16, 34, 36, 174

183

90

Matthew

28:18
28:18-21

28:19
28:20
28:28-30

Mark
6:17-18
6:18
78
FAB
7:9-10
7:20-23

10:42-45

12:30

13:25

Luke
1:32-33
1:79
2:2
2:32
3:13
3:16

10:7

1017-18

11:10-22

11:21-22

13:32

14:31

19:8

1811

19:13

19:17-20

19:23-24

20:22-25,

22:24-30

23:2-3

31

3, 79, 104, 123, 153,
154, 184

85

85

108

95
