1 Timothy
412
53-5
5:8
5:17-18
6:10
6:12

2 Timothy

3:16
3:16-17

Titus
331-8

 

4:12

 

113

81

82, 165, 190
16

46

62

204
183

165

Scripture Index

James
41-2
47

d Pater
25
2:13
2113-14
4:17

2 Peter
2:20

1 John
3:8
413
5:18-19

2 John
7

Jude
18

Revelation
1:5
1:16
2:2
2:6
2:16
2:20
79

11:15

12:12

17:14

19:15

19:16

20:11-15

251

79, 108
153

145
101
170

123

153
124
153

124
