398

Galatians
4:4

2:3-4

S:l4
3215-22
3:16
3:19
3:23
3:23-4:10
3:24
3:28
3:29

4

4:4
44-5
4:6
4:10
“29

  

 

House Divided

359

101

15

168

111, 296, 338
35, 169, 173
153

157

153

36

35

111

110

a“

115

165, 169

35, 153, 157, 169, 173
114

179

113

163

115

169, 173

101

101

162, 190

4, 226

35, 169, 173, 319

184, 190, 191
216

24, 186, 191.
‘186-87, 378
186, 191

223

4

Ephesians
2:8-10
2:10
2:11-20
211-22
212
2:12-17
244-15
2114-22
a4
2:21
3
3:3-6
3:8
3:20
47-12
48-11
48-14
413-15
424
4:25
4:29
55
Silt
5:13
6:2
6:9

Philippians

2:9

2:10
2:12-13
3:3
3:20
4:13
4:19

Colossians
1:10
1;12-13
1:13-18
1:15-20

39, 98, 194
4

35
169-70
35, 36
193

4

113

15

169, 173
186-87
35

223

25

185

161, 223
187

Cy

151

52

53

178, 187, 190
208, 210, 309
196

17

168

186, 191

197

194

169, 173

35

25, 194, 210, 223
194, 210, 223

218

162, 173, 182, 191
3

xi
