2:9-10

House Divided
I Peter

170

32

87

4

190

185, 216
32, 33
379

184

224

37, 95
190

225, 231
37

169

32
37

 

95

218 83
169

169, 173
92 13

Revelation

3B
184, 191, 216
223

219

25

189

163, 189-90, 191.
121

6

372

220

300
