Revelation
11
1:3
1:4

11:1-2
12:15,

13:5
13:15-17
13:18
15:4
16:6
16:14-16

Scripture Index

Revelation
17

17:3
17:6
17:7
17:9

264, 267-68, 269, 300
268, 269, 300
182, 269

186, 191, 197
191

182, 189, 191, 267, 269
269

299

182, 222, 269
53

53

184, 191

262

263, 300

150, 348

29

195

182

264, 230

163

280

264

bs)

264, 280

96

262

333

 

22:5
22:6
22:7
22:10
22:13
22:16

401

262
313-14, 375
152, 225, 337

 

163, 202
268, 269
269
268, 269
149
