Diagram 12.2
The Four Rivers of the Garden of Eden

 

 

 

 

 

~——
y
Four Corner Cross
Symbolism Symbolism

Diagram 12.3
The Israelite Camp (Numbers 2)

 

North Camp
of Dan

Eagle Facei
157,600,

 

 

West Camp East Camp
of Ephyaim Levites, of Judah
(Bull Face) Priests, (Lion Face)

fabernacle
108,100 186,400

 

South Camp
of Reuben

{Man Face}
151,450

heel

 

 

 

 
