326

Numbers
31

31:8
34:16
33:9

Deuteronomy
1:6-4:40

1:9-18

 

5:1-26:19
Sid
5:15
8:3
Ltt
11:30
12:2
12:13-14
13:10
14
14:4-5
14:27
14:29
16:16

 

30:19

31:7
31:9-13
31:14
31:14-33:29
31:23

202
276
276
OL

130
130
36, 98
130
193
131
262
130
98
205
24
283
90
BB
204
72
101
99
203
203
205
4
88
235
61
33
297
297
88
88
221
98, 297
98
130
130, 268
98
75
125,
109
131
131
131
131
131
131

Turoucu New Eves

Deuteronomy

 

32:15-16
32:18
32:21
32:27
52:30-31
32:35

 

69.
70

23, 26
3

43

24

23, 97
7

70

24, 83
24

70

24

7

61
294
24

85

61

131

109
58

i0L
190
190
190
211
210
192
304
88

91, 202
91

26, 56, 294
88

88

88

88

88

221

90

88, 221

ai
