328

2 Samuel
22:29
22:32
22:47
23
23:1-5
23:4

I Kings
2:26-27

 

87
7
a
148
7
294

225

224

141

222, 226
84

134
9

75

75

82, 84
222
307
231

86

231
91, 231
231

86

254

228,
298
228
231, 276
84

231

99

84

234

99

158

48

244

228

5

7%

158
158
16, 235
235
235.

235

187
86, 268

Trroucn New Eves

t Kings
11:40
12
12:1-20
12:25-32
14:25-27
14:28
15:4
15:14

16

7

A?

18

18:1
18:4
18:31-32
18:32-33
18:38
18:40
18:41-45
19

19:4
19:5,
19:7
20:35

at
22:19-23
22:43

2 Kings
Q:1-11
27
2:13-22
2:16-18,
46
4
41-7
4:8-37
4:23
4:38-41
4:42-44
6:1
6:1-7
8:13
8:19
14:14
12:3
18:21
19:15
23:3
23:5
23:10

187
935
187
187
235
228
36, 268,
224
276
276
236
156
236
309
236
236
236
236
236
156
88
88
88
309
276
139
224

312
309
213
312
312
309
312
312
203, 241
312
312
309
312
99
268
309
224

112, 306
309
60
308
