John
14-16
14-17
14:6,
1S:
15:15

18:31
19:41
20:6
20:7
20:12
20:15
20:22
21:7
21:15-17

Ads:
1-28
1:6
1:12

2:2
23
2:13-15
2:16-18
Sil-11
5:28
7:2
7:22
7:30
Tad
7:49
10-11
11:26
15
15:10
17:10-11
17:28
19
28:28

Romans
1:16
1;19-20
1:20
1:21
1:23
4:11
4:19
silt

268
126
23

25

140
968
264
269
268
311
268
269
269
269
269

183
274

86, 301
274
274
113, 274
275

6t

118

186

185

10

202

49

42, 207
102, 274
259
274
199
127

24, 108
16

275

123

3, 13, 20
21, 122
107

188

276

50

33

Scripture Index

Romans
9-11
12:1
13
15:12

1 Corinthians
3:10-13
3:10-17
3:16
6:19
9:9-10
9:10

10:6

10:11

12:6

12:12-28

13:11

14:20-22

15:32

15:41

15:47

2 Corinthians
3:18
al

Galatians
2:9
2211-21
3:24
at
41-3
4:1-7
Asds4t
ad
49
4:22-31

Ephesians
tl
1:20
1:22
2:6
211-22
2:20
4:8
4:11-12

Philippians
1:7
yaa]

83
3it
278
87

7

144

213, 265
144, 216, 265
98

98

50

50

108

25

123,

275

16

54

106

106
144

91, 148
274
199
199
264
136
123
260
123
274, 276

108
161

24

56, 161, 270
amt

72, 148

16

16

50
56, 105, 270

335
