480

i Kings
8:27
15:18
16:21
21:18-19

LE Kings
214

f Chronicles
22:10

HT Chronicles
36:21

Job
i:l2
1;14-17

 

42:16-17

Psaims

 

THE DOMINION COVENANT!

433,
80

106
445

33
172
32, 211 7

435
164
164
435
442
442
442
2, 432, 435, 446
443
443
443
164
164
164

444
1, 428

4281

64, 106, 444
soo

173

444

173

432

GENESIS

Psalms

90:2 428

90:3 428

94:10-13 443

97:9 432

99:2 432
102:11 126
104 431
(15:16 439, 444
119:72 8t
119:105, 442
119:124-25 442
119:127 81
121;2 454
127:3 165
135:5 432
136 438
136 452
136:6-9 438
139:7-8 433
139:14-16 443
Proverbs

 

16:9
16:16
Qik
22:6
30:24-28
31:12
31:23
31:27

Ecclesiastes
1
911-12

12:13

126
396, 397n
438
