 

Matthew

4
48
5:5
6:19-21
TAS
10:34-36

 

 

Scripture Index
Jeremiah
81 32:10
439 92:17-18
431
444
432, 440, 446
440
431
428 Ezekiel
64 14:4-5,
435 14:9-11
435 36
421 37
27
432 Daniel
429f 2
231 2:31-35
465 2:35
465 2:36-45
109 6:8
432 6:12
429, 432 8:9
435 8:10
439, 447
429 Hosea
98 12:4
117, 123, 124, 440, 447 12:5
113, 123
439, 447 Zephaniah
2:8-10
448 Malachi
435 1:2-3
433 1:3
453
82
NEW TESTAMENT
Matthew
9 11:29
446 12:36-37
437 13:10-15
161, 235 13:15
424 20:28
451 20:25-28

186
186, 444

447f

359
119
448

341
3i1
464
66n

201
201

158

180
178, 187
189
237, 430

437
107
444
193,
109
217

481
