3:9-13

I John
S45

Jude
13

Revelation
1:13
1:20
2311
Bl

THE DOMINION COVENANT:

429
161
161

147

429

448

66n

464
66n
118
66n

Revelation
6:10
6:13
8:7-12
8:12
9:15, 21
10:6
12:4
19:19-21

20

20:6

20:13-14

20:14

a

Qt:

21:18

22

22:2

22:3

22:18-19

GENESIS

89, 447
66n
458
66n
458

458
448
89, 94
118

xxvii
8, 447
89, 429

447

89, 118
a9
XXXVI
