Index

kingdom of, xxii
law of, s00dii, xxix, xxxii, 74, 106,
109, 117, 417
law-order, 27, 87 (see biblical law)
laws, 158f
laws of thought, 6
mind of, 6
moral law, 36, 82
objective values, 42
omnipresent, 433
omniscience, 101, 106, 109
owner, 106
plan, 59f, 85
planner, 64
plan of, 2, 6f, 22, 24, 64
power, 433
promises of, 199f
proofs of, 256, 450
providence, 26, 252
purpose, 441
purposes, 87f
randomness vs., 20
redeemer, 427
revelation, 106f, 428
revelation of, 431, 434
Satan vs., 7
shield, 162
shoving out, 20, 22, 249, 272,
279, 317, 379, 414
sovereignty, 22, 27, 59f, 87, 89,
396, 410, 4351, 437, 443, 446
space and, 371
standards, 37, 38, 60
stone of, 448
testing, B6f, 1001, 110
theophanies, 200f
time and; 380
transcendent, 432
unchanging, 430
whole counsel, xxxii, 149
wisdom, 442
wisdom of, 430
word of, 103, 107, 109
Godhead, 320
Gold, 233
eating, 236
historic value,. 80

493

intrinsic value, 80
money, 78ff
unit of account, 79, 80
Gomorrah, 157
Goodfield, June, 14f
Government, 25 (see also civil
government, self-government,
state)
Grace, 102, 1144
Graham, William, 260, 262
Grass, 126
Gray, Asa, 259, 403, 409, 410
Great Commission, 31
Greeks, 164, 239, 359f, 368, 418,
438
Greeley, Horace, 19
Greene, Marjorie, 257
Growth, 114, 123, 128, 159f, 174f,
381
limits to, 175
points to final judgment, 175f
Guidelines, socxii, xxxiti
“Gunsmoke,” 135
Guye, Charles, 374
Gypsies, 134
Gyroscope, 381

Habits, 69
Handler, Philip, 282
Handmaids, 197
Hapgood, Charles, 369n
Hardin, Garrett, 116n, 122, 209
Harmony, 90f, 95
Harrod, R. F., 46ff
Harvard, 426
Hayek, F. A
career, 326f
collectivism, 96f
decentralization, 10, 380
defense of freedom, 331
design, 1in, 20f, 328
dualism, 333
evolution, 319
faith, 337
faith of, 331
historicism, 333, 335
impersonalism, 9
