8

A Study Guide to Liberating Planet Earth

Page # Question Answer

 

11.

 

 

 

12.

 

 

 

 

B.

 

 

 

 

Page # Question Answer

 

 

 

 

 

 

 

 

 

 

 

 

¥5.

 

 

 

 

 

 

 

16.

 

 

CHAPTER 1

L —

2, —

3. _

4,

3. —

6. —

7. —

8 _

9. —
10, —
11. _

200 =
13.
14,
woo» _
16,
1),
18. —_—
19, —

 

 

 

CHAPTER 2
17. 1. —
2, —_
3 —
is} ¢ —
3 —
6. _
7
19. 8 -
20. 10.
CHAPTER 3
21.) *
2,
3.
22.| 4 —
5‘
6
7,

(Continued on next poge)
