 

 

ze , : : : : 3
PIL Tide Thi de dh dte di} Tired
2 : ‘ : i : i
4 ; © ; j
g : i é
gedigauisessi aged: ss tat ps
e ! : ' : 5 :

* ‘fe : [GB iTS ; ‘BG
glia |S ‘fot lo Oe) vi » fad
Peo: Ls ‘|e 1 |e i [6 a 1 [ed

 

 

 

 

 

 

 

 

 

 

 

 

 

 

 

 

Answer Sheets

 

 

 

 

 

 

 

 

 

 

 

 

 

 

 

 

 

 

 

 

he : ' ‘
9 ! 1 : 1
4 ‘ : ; '
4 ; *
q ' 1 % t 1
S$ : , 1 :
S ' E ' '
6eea st da gv Bs wg AN BH FH BK se
g : as. ese 8 a
e : : o : ‘
* (. (Ta 1 Te * | Te | TS
9] 60 1 [oH » )ag ib 110 Ta
EWN LN 1 NI LIN LIN
