 

 

 

 

 

 

 

 

 

 

 

 

 

 

 

 

 

SB , : : : : §
BIlI eee 4
a : i ‘ 8

: : ce ‘ 1
g : : a ' ig
a : ' at ‘ '
Peea a, Ha, CHR, B Bal esen.
g : : : 3 : ‘
Te ‘Te ‘fe zB ‘To '
o 1 1 1 1
gue 1 |e ae 2) 1B ‘

 

Answer Sheets

 

 

 

Page # Question Answer
24,
25.
CHAPTER 7
1
2.
4.
5.
6
4
&
9.
10.

 

 

 

 

 

 

 

 

 

 

 

 

 

 

 
