ANSWER KEY FOR
LIBERATING PLANET EARTH

TEACHERS: These answer keys is layout in the exact same order
as the answer sheet on pages 77 through 83 that students may be

required to send in.

Page # Question Answer

 

 

 

 

 

 

 

 

INTRODUCTION

5.) } c
2, B

6. 3 Cc
4 A

5. ¢c

7 . 6. D
7 A

& A

9. D

10, ¢

Page # Question Answer

 

8.

 

 

 

il,
12,

13,

A

 

 

 

 

 

 

 

 

(Contiraed on next page)
