Page # Question Answer

Answer Keys for Liberating Planet Earth

 

1.

 

CHAPTER 1
1 D
2, Cc

 

 

 

 

 

 

 

 

 

 

 

 

 

 

 

V4, 1299 D
13, c
14, A
15.)* ” A
16. D
1, D
16. 18. A
19, A

 

 

Page # Question Answer

 

 

 

 

 

 

 

 

 

 

 

 

 

 

 

 

 

 

CHAPTER 2
17.) | c
2, D
3. A
18 4, A
5. ¢c
6 B
1 ¢c
19. 8. B
9. c
20] © D
CHAPTER 3
21, 1. Bondage
to whom
2,
3. B
22.) 4 ©
5. D
6 B
1 ¢c

{Continued on next page)
