Answer Keys for Liberating Planet Earth

 

 

 

 

 

 

 

 

 

 

 

 

 

 

 

 

 

 

 

 

 

 

 

 

 

 

 

 

 

 

 

 

 

 

 

 

 

Page # Question Answer Page # Question Answer
35, 6. B 42./ 3 B
on. 7. A 4. D
OTe 5 ¢c
36. 8. B somes seees neces neces ne
* c 43.] 6 A
10, A 7 B
ll. B &, D
37.| 2 ¢ 44. 9 c
13, c 0. D
14, i, A
OT es 22, c
38. cho A wore e neste teens ne eee --
16, D 45. B 39 B
I. D 14, D
18 A 15, A
OTs rrees 16, c
39.| ™ B 1 D
20. DO Leelee eee ee eee ee
21 A 46 18. D
Wenn 19. D
40.) ” A 20 c
21, B
CHAPTER 6 cores sere see 7
4. L A 47.| 2% ¢

 

 

 

 
