392

I Timothy

 

5:
5:17-18

II Timothy
3:16
3:16-17
3:17

 

2:2-3
2:3

THEONOMY: AN INFORMED RESPONSE

305

139, 172
105, 145, 156
139

139

356

250

339

299

279

26
143

299

169, 170n

172

129, 275

71

275

169

169

168, 171, 184
170

131n

130, 139, 169,
170, 178, 180,
183-85

182

131, 169, 170,
171

2:8
2:14-18
3:2-6
4:1-11
4:16
5:12
5-10
5:18-14
79-11
Tl

711-12

7:12
7:13
7:13-16
7:14
7:16
7:18
7:18-19
7:22
7:24
8:1
8:1-4
8:6

8:7
8:8-10
8:10

9:1

9:9
9:10-12
Q:11-15
9:13-14
O15
10:1
10:1-2
10:1-9

213

172

168

293

183

173

182

109

275

112, 128, 130,
170, 178, 179
174-77, 184n,
293

275, 306

176

129

276

179

176

77

172

275

171

168

175

178

148

129, 172, 178,
305

168

173

130

169

182

170

176

130

169
