246 BRINGING IN THR SHRAVES

James 1 John
238 61 3:16-18 62
2:14.26 él 44 96
2617 58 54 96. 98

I Peter 3 John
116 100 8 199
25 1g
29 9 Jude
2:21 100 22-23
49 199
4:10 2) Revelation
3:8 98 31-8 98

45 102

2 Peter 133 y
