250 BRINGING IN THE SHEAVES

Wilde, Oscar, 198

Wilheim, Marcus, 25

Williams, Walter, 46.

Wilson, Jeanie. 196

Woolridge, George Rodgers, 173

work, 46, 74-79, 177

world view, 92-95

Workman’s Compensation, 42

Women, Infants & Children (WIC),
40, 48, 185

worship, 102

Zwingli, Ulrich, 119
youth ministry, 105, 190
