Romans

3:23 x
6:23 x
8:29 174
13:8 201
18:11 174
16:20 xvii

I Corinthians
6:9F ix, xi, 179

6:11 xi
10:13 xviii
1L:27ff 81

12 In
13:11 53
15:20 xix
15:22ff 79-80
22:26 79-80
TI Corinthians
6:2 37
Ephesians
LVF xvii
2:8 175-76
2:10 39
5:1ff ix, xv
Sf 678
Philippians
2:12 xvi
Colossians
1:106f xviii
LIS = 94

3:2 64

Scripture Index 237
I Timothy
3:6f 58
3:13 116
Hebrews
1:2 48
Billff 208
O:15F = 48
O:22fF 48-49
12:14 174
James
2148 172
2:14fF — 176
417 xviii
J Peter
3:15 195
II Peter
1:19 78
I John
2:3 xvi
219 177
3:22 xvi
5:2 xvi
Revelation
20:7 = 71
8:78 71
9:15, 18 71
