Numbers

 

35:22-28
35:30-31
35:31

36
36:8

Deuteronomy

4:13

1:17
44-5
44-8
4:5-6
4:5-8

4:6

 

Scripture Index

149n

903

668

634, 835n

834-35

124

295

667

150

319

914

44

124

680

462n

903-4

319

838

837

645

219

218, 260, 265, 647,
843n,

642, 646

977

319

320

472

305-6

300, 320, 403, 419,
475

144, 229

272

842, 852

303, 670, 758, 1014
832

89

66

63, 313, 785-86, 917
852

673, 678

917

394

98

Deuteronomy
6:6-7
7:2
8
§:6-20
8:17
B:17-20
B18
8:19-20
8:64-65

10:12

10:17

12:1-5

12:16

13:6-9

13:6-11

13:11

14:21

14:22-29

14:23-29

14:28-29

15

15:1-3

15:1-6

15:4

15:5-6

15:6

15:7-8

15:7-10

15:9

15:9-10

15:11

15:12

15:12-15

15:13-14

15:16-17

15:17

15:18

16:2

16:5-6

16:11

16:11-12

16:13-17

16:18

16:18-20

920
165

971-72, 975, 976
952, 955

41, 916

110

65, 973, 976, 981
455, 916, 981
815

889

809

286

343

186

463, 681
533, 539
488, 497

992

902

686

104, 106, 210, 299
710

823

712-13
71-12

132, 707

714

712

131

125, 686

113

131, 380

nt

126, 131

135

145

131

829

829

686

687

829

842, 852

831

1221
