20:14
20:12
20:13

TOOLS OF DOMINION

874
885
907
112

543

343

620

623

623-24

624

eat

316, 326

624

513, 538, 622

398

625, 626

617, 627

189n

621

621

536n

841

475, 580

475, 580

248

50, 51

1019

100, 1015

681

686, 819

129, 130

400

98, 813

262, 299

681

318

1019

318

244, 250, 251, 301,
303, 318, 522, 681

319

319

101, 319

Leviticus
20:15
20:15-16
20:16
20:22-26,
20:27
21:7
21:9
21:13-14
211+
22:10
24:14
24:16
24:17
24:18
24:20
25:8-9
25:8-34
25:14-17
25:13
25:23
25:25-28
25;29-33
25:31
25:35
25:35-37
25:39-41
25:47-50
25:43
25:44-46

25:45-46
25:46
25:47-49
25:47-51
25:47-52
25:50-52
26:14-25
26;38-42
27:3
27:3-7
27:4
27:5
27:5-6
27:28-29

Numbers
21-4

319

301

319

461

301, 319

1015

305, 645, 661

1085

250

992

44

301, 319

319, 361

419

458

140

228

676

587, 833

259, 820

128, 1182

141

833

710

709

128, 299

226

128

32, 122, 124, 138,
139, 452

132

148, 1051

837, 340

650, 652, 656, 664
326

225, 655

656

225n

151-52

634
