162

Exodus
35:13

Leviticus

7:22
16:29
17:10-13
19:9-10
19:15
19:32-34
19:33-34
20:2
23:22
23:40-43
24:8
24:16
24:22
25:35-37
25:35-55
26:3-13
26:6
26:14-35

Numbers
3:1-4:49
4:7

13:23-27

13:33

16:1-35

18:24

19:11-16

22:2-40

35:15

Deuteronomy

1:17
2:25

In the Shadow of Plenty

"Deuteronomy
62 T1226
7:28

 

75 3011-14
28 32:14-15

at Joshua

3

103
157
157

 

a1

90, 114
