166

Ecclesiastes
2:24
3:22

10:18

11:9-10

tsaiah
1:1-6:13

58:6-7
58:6-12

102

43, 69

107

107, 108

43

107

110

102, 108

43

107

107

13, 108

109

109

109

23, 55

13, 23, 108,
144

In the Shadow of Plenty

dsaiak
58:6

 

 
   

34:13-14
47:22-23

Hosea
2:21-23

Amos
4:6
74
8211-12

Jonah
2:2-9

Habakkuk
3:17-19

55, 109, 124,
126, 128

55, 109

34, 143

36, 111, 116

46.

36, 46, 110,
116, 143

107

107

7
