168 In the Shadow of Plenty

 

 

 

Luke Acts
157 64 82
78 8:1-28:31 116
78 8:36-37 98
79 8:38 93
“4 9:36-41 30

22:25-30 41, 44 10:22 93

10:31 3E

John 10:31 93

621-14 33 10:34-35 20
43 10:34 43
33 10:36 20
33 10:44-48 93
33 10:44 93
33 11:25-30 49
29 11:27-30 30, 79
153 14:8-19 49
7 16:14 50
157 18:23 49, 80
79 20:28 8
151 20:34-35 50
151 22:3 49
22
2B Romans

1:16 93
118-236

103 3:10-18 22
116 12
103 : 8B
72 8:31 105
50 8:37:39 116
117 8:37 113
83 10:9. ob
74 10:17 90, 110
30 12:6 2
81, 8 12:7 a3
5 12:8 83
83 12:10-13 84
94 12:13 85
72, 82 12:15 a4
82 12:16 84

 

82 12:19-20 149
