SCRIPTURE INDEX

OLD TESTAMENT

(Boldface entries Indicate that a passage has been quoted or discussed at length)

Genesis

 

16, 173, 273,
405, 361, 478

5
197, 553

197, 489, 553
13

SB

306

173, 304

Eye

345

73

327

308, 510

306n

543

310, 625, 635,
647

288

173, 304, 3470,
573

361

70

565
283, 344
34k
288
16

451
432
136
Th, 86, 198

29, 38, 298, 307,
330

446

633, 652

31, 131, 279
5, 279

126

Ba, 595, $76

483

514

214, 215,

 

489
679

 

195, 631
6
250

613

232, 365, 453,
472, 529

198, 645

307

373

131

525
479
479
2b
296
a
81, 159, 301
a9
