SCRIPTURE INDEX

      
  
 

 

Peaks
92:12-14 203 280 196, 262
34 250 266 160
9434 19g 203 155
96: 175 244, 304 388
6: 237 203 88
96: 42 175 207
3B: ANS 3230 299
98: 5 299
99; 385 322
98: 388 357 324
5 26tn, 388 244 528
99: 388 2790 4350

355 Aa 389
7 246, 630, 659 159
197 363 389
52 363 sid
260 500, 632, 66 281
154n, 297 wT 381n
64, 203 334 wr
261n 533 7
ot 627 482
304 279, 578 76, 486
1980, 470 wT 5, 354, 408,
244 560 Stl
63a 0
308 16
488 388
458 408
203 409
195n, 250 405
1470, 170 240
387 196, 197
4m 196
35, 531, 832 1 249
32 4a7
2357 240
257 81, 250
388 458
222 280
402 sla
322 337
261 262, 438
70 226
70 cas
221 463
204 276
287 126
341 126
257 126
198n 356
450 273 20, 424
250 2910 190
7 19, 281, 356, on
387 425 in
98. 1950 88 463
250 198 196
240
1950 354, $40, 556 oes
250 268 196
174 88 2
17s 268 556
826 28h rd
"7 222 6, 115, 285,
387, 442 197, 374-78 388

 

685
