Habakkuk

a9

3:10
3210-13
31
3:12
3:13
BS
3:16

Zephaniah
1

qi

11415
1:14.18
21
3:

243

Haggai
12
13
25
26
2:67
27
210-14

Zechariah
1:6

129
37h
405
197
358

216

338

21

413, 414
285

22
5660

21

 

 

 

SCRIPTURE INDEX

 

 

 

184
194
14
38, 327m, 464
23
276
314
170
S8n, 60, 276 Malach?
276 1:6-td 34a
$80 Mo
478 409.
183 265
173, 197 338, 499
143 18
355 4
143 339
385,
385 Wn
385
an 340
398 STL
412 2601
50, 66 £59, 205, 260,
412 4g9
339, 44s 27
276 512

NEW TESTAMENT

Dtatthew

337 334
627 123
163, 575 312
410 ay
560 317
578 317, 500, Sot
337 500
12 414
338 31
125, 483 447
131, 274 145
a7 87, 46
S01 267
a7 505-6
361 136
356 123
398 504,
317 507, 635
33 S020
317 634
317 634
217 519
362 282
14 512
125 337
356 341
S12 38
278, 512 340
217 137

 
