let

 

 

 

SCRIPTURE INDEX

Revelation

318, 326-29 14:7
344n 1458

6, 38

106, 329, 499.

329-31, 432

329, 458, 499,
$50

216, 274, 310

328, 408

318, 358, 484,
Si4

348, 550

129, 331,
333-34, 361,
435, 533, 534

12, 330, 331,
361

350

297

338-41

129, 2970, 315,
330, 331, 337, 15-22
361, 499

344, 550 W521

 

 

384, 395, 601,
aio 15:6
296, 342, 15:67

354-85, 430, 158
507, 552, 570, 16

OL
356-60
339, 608
129, 242, 372,
489, 550
360-62
45, 360
a7

 

372, 387

258, 362-64,
65, 414, 415,
428, 434, 446,
448, 550

385

356

W065

339, 363, 389,
390

529

an

69, 518, 550
6-70

$4, 372, SB
187, 361, 48t
3n-73

46, 370-78
300n, 371, 389

17, 2, 46, ©,
158, 38}, 552

297n, 383-84,
387, 397, 412,
599

46, 183

384-86, 491, 514

27

382, 386-87, 563

385, 402

285, 339,
387-88, 4750

388-89, 443

46, 385, 388,
397, 546

a5

392.93

81, 375, 381,
395-419, 610

397-98, 546

4%, 396-97

369

396, 398, 405

281

396, 398-400

396, 400-402

291, 390, 518

387

392, 402-4

203, 285

 

 

17-18
17-22
71

 

1733
174

ines
1738

 

 

36

336, 499, 550

408-9

78, 2970

27, 54, 51B, 575

W

all-12

12-13, 472, 548

396, 422, 545

412, 413-14

363, 390, 395,
414-16, 423,
442

417

237, 412, 417-19

421-43

2B, 381, 610

418, 422, 429,
$52

421, 423-28

20, E14, 427,
430-31, 439
402, 518, 530

78, 327, 437

437-38

280m, 484

78, 424, 438-39,
458, 484, 570

14, 439=41,
6, 48

270, 381n, 437

334, 441-42, 492

43, 421, 442-43

2b, 445-66, 608

485-46, 49

450

47, 445
246, 300n,
446-48, 472
