When the State Monopolizes Money 65

PURCHASING POWER OF $100 OF FIXED PENSION BENEFITS
UNDER various RATES OF INFLATION

 

¥ Lo Inflation Rate
retire- 3% 4% 5% 6% T% B% 9% 10% 11% 12% 19% 14% 15%
me

 

1 97 96 95 94 93 938 92 91 90 89 88 88 87
2 9 93 91 89 88 85 84 83 81 80 78 77 76
3 92 89 86 84 81 79 77 75 74 71 69 68 66
4 8 85 82 79 76 74 71 68 66 64 61 59 57
5 86 82 78 75 71 68 65 62 60 57 54 52 50
6 8 79 75 70 67 63 60 56 53 51 48 46 43
7 81 76 71 67 62 58 55 61 48 45 42 40 38
8 9% 73 68 63 58 54 5O 47 43 40 38 35 33
9 7 70 65 59 54 50 46 42 39 386 33 31 28
10 6% 68 61 56 51 46 42 39 35 32 29 27 25
72 65 58 53 47 43 39 35 82 29 26 24 22
70 63 56 50 44 40 36 32 29 27 23 21 19
6 60 53 47 41 37 33 29 26 23 20 18 16
4 6 658 51 44 39 34 30 26 238 20 18 16 14
64 56 48 42 36 32 27 24 21 18 16 14 12

68 53 46 40 34 29 25 22 19 16 i4 12 11

61 61 44 37 32 27 23 20 17 15 18 11 9
148 «69 «60 41 35 30 26 21 18 15 18 11 9 8
19 8? «47 40 33 27 28 19 16 14 12 10 8 7
2 & 46 38 31 26 21 18 w% 12 10 9 7 6

Then, in 1917, the bottom bracket was dropped from $20,000 a

year to $2,000. The politicians swept a lot more people into the
net, And took at what they did to the top brackets: 1913-15: 770;
