 

18:13-26

Scripture Index

11, 22, 314
20, 107
144

13, 15
188

188

188, 193
188

144

247

249

376

255

256

17n

310

255
369, 376
180

254

258, 275
140, 329
254

261
376-77
306

318
262, 264
276
140, 257, 275, 280
274

275

280

276

280

277, 278
279

329

165, 275
195

283

204

Exodus
18:14
18:18
18;21-22
18:21-23
18:22
19:1
20:5
20:12
20:13

2t
21:5-6
QU:7-11
21:8
21:16
22:2-3
22:18-20
22:21
22:25
22:29-30
22:30
23:25-26
23:28-29
41
32:9-14

Leviticus
1:3
114
211
5:7
6:5
TAQ

12:3

19:34

19:33

20:6

20:16

23:9

23:10-11

23:12

23:15-16

2317

24:10

24:22

25:10

25:21

248

251

26

135, 238
12

10, 152

167
166
161, 165
166
82
160
248, 251
4
195
4
208
195
162
251
161
160, 162

194
188
278

391
