268

Matthew

24:15-28
24:16
24:19-21
24:21
24:22
24:29
24:30
24:31
24:32
24:32-33
24:32-34
24:34

 

The Debate over Christian Reconstruction

134

7

99, 112

117, 130-34

117

134-38, 141

138-41

141-42

171

142-44

171

70, 111, 114-17, 118,
123, 135, 171, 215,
219m, 222, 223

227

225

173, 222

104

173

226

132

Jin

144

Tin

140, 41, 242

131

70

13, 47, 93, 167, 202,
Qi, 142

71, 168, 222

142
108

71

13, 16
150
32

32
116
192n

Mark
8:38
91
9:19

10:29-31

12:1-12

13

13:44

13:19

13:26

13:30

14:42

14:62

Luke
1:48
1:50
2a
2:32
3213-14
4:14-30
4:16-30
4:21
4:43
7:2-10
7:4
B31
BL
9:41
9:52

10:9

10:18

14:14-15

11:20

11:20-26

11:22

11:29

11:30

11:31

11:32

11:50

11:50-82

116

170

116

26, 59
68n

126, 170, 216
128

134

140

116, 123
Te

140

116
116
125
47
151
132
101
101
101
228
142
116
101
116
142
10t
13, 16, 91
131
13, 16, 71, 101, 162
133
ot
116
116
116
116
116
130
