Romans
16:20

1 Corinthians
4:18-25
2:8
2:14
3:16
3:22
5:7-8
6:9
6:19
7:26
7:29-31

2 Corinthians
3:16

5:1?

6:2

6:16

10:5

11:2-3

1:3
12:9-10

Galatians
1:6
3:13

13, 16, 74, 91n

180
131

63

127

23

192n
208

197

119

119

122

6

46

121, 122
156

223

222

13, 69
101

74, 91m, 215
144

167, 226
46

156

252
21, 63
142
127
35
21a
192n
160

209
32, 152

Scripture Index

Galatians
324
3:28-29
516

Philippians
1:21-28
26-11
27
45

Colossians
1:9
1:13
1:13-23
1:23
2:8
2:15
3:6

208
246

46
55

214
63
214
209
187, 209
246

70, 221
229

237

Tin, 223

46
13, 16, 101, 162, 221
13

124, 192

47, 181

13, 16

19

1 Thessalonians

2214-16
2:16
3:33
4:13-18
414-17

131
119
173
185
69n

271
