Scripture Index

1 Thessalonians

1:7-10 4l
2 Thessalonians
2:3-8 31
2:8 41
2 Timothy

31-5 Kay
3:13 143
Titus

2:11-15 1
Hebrews

12:6 136
2 Peter

3:8 162
1 John

2:18 81

Revelation
8:8, 9
u

3
14:14-20
16

16:12
16:13
16:13-16
16:14
16:14-16
16:16
16:17-21
16:19
17:1-6, 18
17:12-15
19:11-21
19:17
19:17-20
19:19

20

20:7-9
20:8

261

186

43

19, 22, 159
16

2

20, 118, 119, 159
108, 155

16, 41

16, 81, 122

7
