 

Index

mandates, 64-67

Marx, Karl, $3
Marxism, 75, 109, 175
Masons, 71

materialism, 32

Mather, Increase, 18

McCall, Thomas S., 200

McCarthy, Joe, 174, 208

McCartney, R. H., 95

McClain, Alva J., 113, 120, 122

McComb, John Hess, 145

McConkey, James H., 196

Mede, Joseph, 17

Mediterranean’ Sea, 22, 79, 148, 151,
i8t, 188

Megiddo, 16, 181

Meir, Golda, 193

Meredith, John L., 140

Meshech, 16, 21, 27-28, 138, 152,
177

Mesopotamia, 46, 105

Messiah, 11, 68-69, 75, 124-26, 163,
184, 191, 194, 205

Michael, Rabbi, 83

Middle Ages, 108

Middle East, 13, 39-40, 64, 105,
120, 168, 179-80, 194, 196, 202-03,
205-06

millennium, 17, 25, 109, 156, 162

Miller, William, 23-24

Milton, Jobn, 17

modernism, 12

Mohammed, 35

Mongolia, 119

Moody Bible Institute, 13, 34, 38,
40, 63, 97, 160, 163, 167, 175-76,
180, 190, 197, 204

Moody Memorial Church, 119

Moody Monthiy, 13, 61, 64, 67, 72,
86, 88, 91-92, 94, 119, 115-17,
124, 129, 161, 163, 165, 175, 179,
189-90, 199-200, 204, 208-10, 213

Moorehead, William G., 32

morality, B5, 91, 94, 100-01, 104,
131, 133, 140-41, 143, 154, 169-71,
176, 180, 186, 191, 197-98, 201,
205, 211, 214, 217

Morgenthau, Henry, 111

Mormons, 23

Morning Star, 71

Morse, Arthur D., 94

Moscheni, 27

Moscow, 16, 108, 115, 152, 204

269

Mosely, Edward Hilary, 90

Moslems, 19, 25-26, 42, 66, 74

Mosque ek-Aksa, 70, 98

Mosque of Omar, 70-71, 74, 99,
142, 167

Mountain Lake Park Bible
Conference, 46

Mussolini, 51, 60, 81-83, 120, 138,
145, 147, 157, 216

Naish, Reginald T., 84

Napoleon, 20-21, 152, 216

Napoleon, Louis, 29

Nasser, Gamal Abdel, 166, 189

National Association of Evangelicals,
13

nationalism, 109, 152, 168, 173

naturalism, 32

Nazareth, 100

Nazi, 50, 87, 91, 94, 97, 106, 109,
124, 126, 137-38, 147, 164, 174,
206, 217

Nazi-Soviet Pact, 79, 86, 114, 117,
145-46, 216

Near East, 110

Nebuchadnezzar, 16, 41, 164

Nebuchadnezzar’s dream, 82, 157,
185

neo-evangelical, 207, 214

Netherlands, 184

New Republic, 117

New York Prophetic Conference, 31,
38, 56

New York Times, 63

New York Tribune, 31

New Zealand, 158

Newsweek, 192

Newton, Issac, 17

Niagara Bible Conference, 31

Nicholson, William R., 31

Niebuhr, Reinhold, 180

Nietzscheism, 75

nihilism, 32

Nile, 62, 135, 167, 198

North Atlantic Treaty Organization,
157, 181, 184, 216

Northern Baptist, 63-64

northern confederation, 26-27, 50, 77,
79-80, 87, 113, 115, 121, 146, 148,
151, 156-57, 180, 188, 202, 208,
216

Norton, Ralph €., 120

Noyes, John Humphrey, 24
