274

yeshibsh, 70
YMCA, 192
Yom Kippur War, 211-14, 216

Zeidman, Morris, 130, 134
Znoviev, 78, 1

Armageddon Now!

Zionism, 22-23, 33-35, 44, 47, 60,
63-65, 67-69, 73, 90-91, 125,
129-30, 133, 141, 164-65, 167, 192,
196-97, 217

Zionist Congress, 33

Zakerman, William, 165
