TABLE OF CONTENTS

 

 

Preface .0 00 eee ix
Introduction 6.0... eee 1
1. The Reality of Conspiracies... 0.00. eee 7
2. The People’s Wid... ee eee 20
3. The Conspiracy’s Theology .. 0.0.0. eee 32
4, Two Kinds of Conspiracy... 00.060 eee 45
5. Court Historians 2.6... BB
6. Maverick “Insider” Historians .............. ~ 75
7, The Shift in the Climate of Opinion .........- . 84
8. Replacing Evil With Good .......-.-.....54--55-- 93
Gonclusion 2.0. eee 110
Appendix: Monitoring the Elite’s Public Faces......... 117
Bibliography... 0... 0 ee eee 119
Scripture Index .......... 131
Index... 0... eee cee eee . 133
About the Author 2... 66.20 ees . 137

 

Gary North's Free E-Mail Newsletters .............. 138
