13:1
13:13
43:17
13:45-46
14:10
14:34-38
14:49-53
14:52
14:53
14:54-57
15:33
16:30
16:30-34
17:7-12
7:11
17:14

18
18:2-5
18:6-20
18:21
18:22
18:23
18:24-28
18:24-29
18:25
18:28
19:1-4
19:2
19:9
19:9-10
19:11
19:11-12
19:12
19:13
19:13-14
19:14
19:15

Scripture Index

165

168

170

164, 639
50n, 169
166

167

168

168

168

50n

47

411

41

58n

58n

182

186

KXV

xxv, 325
xxiv

646

296, 552
181, 639
394

338, 394
1

4
357-59
195, 641
XXV

209, 223, 643
212

xxv, 643
222
230-31, 235
XV, 222-23,

19:18
19:19

19:23-25

 

19:34
19:35-36
20:2-5,
20:9
20:13
20:15-16
20:20-23

20:22-23
20:22-26
20:25
20:26
21:9
22:10-11
22:14
22:19
22:31-33
23

 

   

659

236, 239, 245,
247, 249, 250,
311, 316, 360,

643
263, 265, 643
278, 281, 299,

624, 641, 653,
293, 302, 306,
641

XXY

XXY

644

308

310

XXY

323

xXV
XXIV, XXViii
XXY, 646
572n
xxix
337, 639
340-41
43

65

495
138-39
50n

179

353

353

79

364

302

353

50n

A
