 

23:20

31:10-13
31:26

  

33
34:4
34:9-12

Joshua
1:1-7
4¥:10-17
1:13
2:3

2:9

5
5:2-12

 

Scripture Index

588n, 5:6-12

507, 513 5:11-12

470 5:12

391 6:4-5

507 6:17-18

514 6:17-19

304N 6:19

xxiv TA

481 7:5

429, 486 9:23

22 13:23-32

501 14:7

14 14:10

24 14:15

557-58 15

152 24:18

ALS

69 Judges

69 7

68 3

4 3:15

43 4

19 4:8

271, 524 4:22

43 6

264 9:45

xlviii 10

xlviii 11:34

xlvili 11:34-39
11:37
13

463n 13:7

413 20

414

431n I Samuel

431n Lil

9, 414 2:25

344 2:27-36

300

301

451, 553
411

584

296

302

584

100
298n, 582
470

303

308

303

470
296, 396

170
185
64
258n, 468n
468n
468n
185
46, 68
185
586
585
586
185,
156
252

591

663
