miscarriages, 387, 417, 420

Mises, Ludwig, 420n, 437,
439n, 546n

missionaries (Israelites), 35

Moab, 185, 325

Moabites, 470

models, xl, xlix

modernism, 4

Moloch, 323, 325, 328, 644

monasteries, 616

monetary policy, 488-89

money, 437-38, 536

monitors, 112, 364-65, 367,
402, 565

monopoly, 361

Mooney, $8, C., 538n

Moore’s Law, 563n

morality, 98

Morehouse, George, 26

Morgenstern, Oskar, 318

mortgage, 55n, 466-67, 472

Moses
appeals court, xlv
decentralization, 251-52
Deuteronomy &, xlviii
pinnacle, 253

Miinster, 334

murder, xxxvi, 42, 329, 335,
527

mystery, 520n

mysticism, 3, 457-58

Naaman, 165n

Naboth, 390

name, 377 {also see God:
name)

names, 216

naming, 380

Nathan, 377
nation (see State)
nationalism, 274, 275
natural law, xxv, 457
naturalization, 507
nature
common, 127
cursed, 61, 242
evolution, 460
God intervened, 14
grace &, 61, 127-28, 131-32,
133
idol of, 459-60
land law &, 641
limits, 561
miracles in, 459-60
New Covenant, 552
redeemed at Calvary, 128
renewed, 133
sacramental vs., 153
sanctified, 128
scarcity, 242
Nazarite, 156-57
neighbor, 249, 486-87, 550
Neusner, Jacob, 102n
neutrality, xii, 276, 332, 380,
458, 634
New World Order, 276
New York Times, xxii
Newton, Isaac, 191, 562
Nimrod, 103
Ninevch, 6, 88n, 543, 631
“No Trespassing,” 8, 120, 307,
375
Noah, 341, 345, 557
Noell, Edd, 651, 652
noise, 565
Norsemen, 30
