220 SupjecT INDEX

nazi(ism) 124, 127, 124, 128-129, Robertson, Pat 143
129-133 135, 140, 146 Roe v. Wade 2, 129,
Nehemiah 180 Plymouth Rock Foun- 142, 144, 150, 153

nceo-paganism 51 dation. 143 Romulus 13
New York Parent Hilary of Poitiers 29 Roosevelt, Theodore
and Child Com- King Pompare 84 107, 116-117, 119-
mittee 106 Pope Paul VI 129, 120, 124, 182
Nicholas of Myra 29 135 Rosenzweig, Dr. 93-
Pope Pins IX 97, 181 94
° Pope Pius XI 130 rule of law 101-103
oblate children 41 population growth Rutherford Institute
Ocdipus 13 121 143
Operation Rescue presbyterian 78, 98
140, 152 President’s Council Ss
orphans 44, 60, 82, 143 sagae 19-21
104, 135 Printice, Leslie 106 sanctity of life 14, 21-
orthodoxy 18, 30, Prodife Action 96, 28-80, 47, 66,
46, 56, 65, 87-88, Icague 140, 153 72, 80, 85, 89, 95,
109-110, 120, Pro-life movement 2, 129, 142, 146,
126, 136, 154, 15, 46-47, 53, 64— 154-155, 162,
161-164, 174 65, 97, 106, 109, 164, 167, 169,
134, 189, 147, 17, 173
P 181-152, 154-155, Sanger, Margaret
Pacelli, Cardinal 131 162, 167, 169 108, 120, 128,
Paine, Thomas 101 Progressivism 120- 123, 137
Pammachius of Beth- 121, 124-125 sarasoati T2
lehem 29 Q Saravov, Vladimir 138
Parliament of Reli- le, Dan 169 sarti 71, 83, 134
gions 78 Quayle, Dan Schaetfer, Francis A,

paterfumilias 20-21, R 140, 145, 149-150

 

40 race hygiene 131 Schaefler, Franky 154

patience 32, 47, 66, Ramsay, James 64 Schaff, Paul 181
89,111, 157, 155, Ramseyer, Friedrich —-Schiedler, Joe 152
172 86 Schlafly, Phyllis 143,

Patristic Era 3 Ramscyers 85 151

Paul, Vincent de 52- Reed, Mary 88 servanthood 81, 47,
53, 61 Reformation 46, 51, 66, 88, 110, 137,

pax britannia 74 56-60, 66, 87 155, 167

pessaries 12, 19, 45 Renaissance and En- Seton, Elizabeth

Phillips, Howard 143 lightenment 4 Ann 104

pictism 142-148 rescues 28, 59, 148, Shelton, M, J. de 117

Planned Parenthood 151, 158 sidewalk counseling

1-2, 168, 120, Restell, Madame 106 106, 140, 151, 153
