726 POLITICAL POLYTHEISM

 

I Corinthians I Timothy
15:24-28 518 1:9 365n,
15:25-29 605
Hebrews
H Corinthians 1:8-14 618
5:19-20 G18 8:8-11 521
614 xiii, 600
86 James
604 1:5-8 121
. 1:8 62
Galatians 4? 33
5:19-21 625-26 4:95 54
Epson ag a4
1:4-5 37
1:8-14 618
110-11 618 T Peter
114 41 $:15-17 QF
1:17-23 618 3:22 618
2:8-10 20 417 598
Philippians AT Peter
2:9-11 618 1:20-21 296
210-11 225 2:22 239
212 595
3:20 620 E John
2:2-6 557
Colossians
16-17 37 Revelation
26-8 667 1:5 618
61213 9 7in
I Timothy 79 618
1:9-10 270 28:8-9 650
3:2 582 20;9-10 148, 156, 227

6:5 618 20:14 582
