 

23:23-24

Ezekiel
1:10

 

 

THE SINAI STRATEGY

 

  

Daniel
82
441
188
95, 120
141
43, 98, 141, 199
209 Hosea
xiii 6:3
180 13:4
20n
xi Joe
8 2:32
286
a Amos
2 B:5
760
Micah
21-2
20n 22
229-30
334 Habaktuk
"v 2:4
33 Malachi
“a ad
20 4:2
NEW TESTAMENT
Matthew
66 7A
20 72
sxxii-neil 9
242 9-30
211, 306, 309
58
118
309
312 12:10-13
126 12:12
37, 63 13:14-15

259-60 18:18

179

229

197
195,

15

58
82

310-11
308

126
