Mehring, F. 22n
Mephiboshoth, 181
mercy, 43, 46, 234-36, 299
metallurgy, 267
Methodists, 273
Michael, 54
Michelangelo, 3in
Middle Ages, 224
middie class, 208, 302
midnight, 81
might, 98
milkirig, 228, 234-36, 287
millennium, 86-92
millennialism, 224
Miller, Henry, 62
Miller, Perry, 272, 273n
Milton, 271, 294, 301
minimum wage law, 99
Mises, L. v.,165
mistakes, 162
mobility, 141-42, 142, 198-99
Moloch State, 175
monasteries, 273
monogamy, {33
monopoly, 56, 98-101
monopolies, 53
Montesquieu, 204
morality, 137
Morgan, J. P., 104, 105
morning, 82, 84
Moses

rock, 35

sculpture, 3in

sermon on mount, 308-9
Mosher, Steven, 181-82
mote, 311
Motivation, 26, 190, 192
Mt. Carmel, 6
Mt. Sinai, 309
Mumford, Lewis, 263
murder, 116, 117, 120, 121, 122; 310
Murder, Inc., 258
Murray, Charles, 131-32
Murray, John, 80, 90
music, 232, 289
mysticism, 15, 326, 329

Index 355

Naboth, xxi, 199, 203
Nachmanides, 18, 43
Nadab, 264
name
advertising, 188-93
family, 178-79
power, 178
name-identification, 182
Nash, Ronald, 8-9, 332
natural law, 331
nature, 75
Nazism, 37
necessity, 284
needs, 188
negative feedback, 46
Negroes, 131-32
Nehemiah, 266-67
neighborhood watch, 145
Nelson, Benjamin, 68
new clothes, 336
New England, 271-72
New. Mexico, 280-81
newspapers, 282, 288, 295
New Testament,.4
new wine, 83
new world order, 38, 39, 88, 89
Niebuhr, Reinhold, 219
Noah, 140
noise, 171
nomads, 168, 198, 223, 226
Norelco, 47n
norms, 5

oath, 55-57
obedience, 18, 26, 78
obligations, 96-97, 112
obscenity, 51, 60-63
open entry, 193
optimism, 218
erphan, 132
ostracism, 254
otherhood, 68-69
overpopulation, 157
ownership

common, 324-25

costs of, 147

covenantal, 116
