384

Jobs
at
1:4
1:12-13
a4
3:3
35-6
3:5
3:16
3:36
5:26
6:32-33
B44
8:58
10
10:22-39
10:34-36
10:34
10:35
10:36
11:25
14:1-6
14:6
14:15-21
14:15
14:18
14:30
15:19
16:7
16:11
16:13-15
17:6
17:7
17:9
17:13
17:14-16
17:15
17:16
17:21
18:28-40
18:36
19:15

The Reduction of Christianity
Jolin
12, 75, 78 20:17 119
286 20:24-27 311
154
71, 78, 313 Acts
118, 287, 351 1:68 218
153 :
110, 185, 208, 218, 219
118, 272, 312
208
286
220
109
12
95
77-83
75,77
76-83
28
82, 83
286
186
104, 286
118
87, 115, 119, 186
118
132
175
119
132
88
175
119
175
119
xili, 312
175
175
5
198
173-77, 356
103, 109 16:37-39 185

 
