Acs
171-9
17:6-7
17:6
17:7
17:24-28
17:30
17:31
17;32
19:11-26
20:18-35
20:28
22-26
22:22-29
25:11
28:23

Romans
bs
Li

1218-32 |

214-15
2:24
3:31
4:9-25
Sil
5:17
5:20
6:1-11
6:1-8
6:1
6:11-12
6:14
6:15-23
6:17-19
7

Ts

7:6
FAQ
7S
7:22
7:25

109

198

109, 271
198

112

6

219

9

109

183

275, 280
9

185

185

354

341
xd
140
89-90
210
27, 87

Scripture Index

Romans
8:1-5
8:4-9
8:4
8:6-8
8:6
8:7
8:9-10
8:13
B:15-17
8:17
8:28
8:29-30
8:33
8:37
9:6-9

10:9-10

101417

Al

12:1-2

12:2

13

13:1,

13:1-7

13:4

13:8-10

13:8

14

14:17

14:20

15:24

15:28

16:20

16:26

J Corinthians
1:13
1:25
4:30
3:21-22
4:20
5:7-B

226

24, 223, 224, 299
137, 224

75

288

224

284

9

220

85

226

288, 312

197, 342

227

187

316

27, 87

227

313

110, 162, 218, 351
313

272

272

xxviii, 109, 132
341

5

137
286
224
208
167

385
