1 Corinthians
6 83
6:1-6 195
61416 128
6:15-16 72, 56
6:18 2B
7:28. 63
72 56
7:25 59
75 103
74 61
12:23 55
Galatians
6:16 113
Ephesians
4:19¢ 204
5:22f, 112
5:22-33 xii
5:22-25 10, 53
Colossians
1:16,17 211
2 Thessalonians
3:10 59
I Timothy
3:2 203
3:2,12 202
3:6 122

Scripture Index

1 Timothy
3:7

16

  

Titus
1:6
Hebrews
1:3
312-13
10:25-31

James
214
5:20

I Peter
3:7

1 Join
1:8
2:3

Jude
7

Revelation
3:14-16

16:15
20:14-15

231

203
206
206

202

210

106

50n2,
o1

53

178

56

it
55
106
