SCRIPTURE INDEX

OLD ‘TESTAMENT

Genesis Joshua
i 58 5113-14
1:3 59
1:27 59 J Samuel
1:27-28 28 18:10
1:28 276, 284, 330,

362, 401 I Kings
a5 217, 285, 37 18:4
3:8 69
31517 62 II Kings

14:18 70 6:16-18

18:1-2 69 23:10

19:11 69

32:24-28 69 Jeb

tld

Exodus
3:2 69 Psalms
a4 70 8:5

22:18 65, 66 27:1

23:13 399 97:9

23:21 70

23:26-25 226 Proverbs

23:25 351 1:7

16:9

Leviticus Qi:t

19:26 65

19:31 65 Ecclesiastes

20:6 65 12:12

Deuteronomy Isaiah
8:6-20 278 1:26-27

18:10 65 14:12-15

18:10-12 65 45:5-12

18:11 65 47:9-12

18:20-22 65 47:18

281-14 136 58:8-9

28:15 273 87:15

403

68

68

384

69, 156
66

68

330

373
7in
60
65
65
59
59
