166 THE GREATNESS OF THE GREAT COMMISSION

 

Proverbs 4:4 68, 70
9:10 72 4:8-9 38
1533 8, 132 4:12-17 39, 102
22:6 163 5:18 117
15:13 60, 75, 117, 118
5:15, 17 21
30, 143 5:17-20 70
39, 143 5:27-32 75
143 6:9-10 98, 157
30 6:13 157
19, 130 7:12 70
93, 121 7313-14 R
19 7:28 a
7:24 74
10:4 70
80 10:5 49, 53
80 10:7 39
16, 17, 48, 88 10:38 74
11:11-14 102
11:12 39
30 12:28ff 39, 102, 142
93 12:33 a1
142 13:3-9 140
13:23 140
13:29-30 143
93 13:31-33 108, 107, 142
30 13:34 74
153 18:36-43 107
13:41 7
14:1-12 129
21 1533-6 70
16:18-19 103, 116, 142
16:24 74
36 16:28 39
21, 61 18:20 96
20, 35, 96 19:13-14 86
36, 39, 49 19:16-26 70
39, 102 2031-15 75
37 20:19 53
37 20:22-23 85
82 21:28-32 74
70 21:33 97

 

37 22:36-40 70
