170 THE GREATNESS OF THE GREAT COMMISSION

101
142
80

70, 71
70

31

88

80, 88
81

10, 75, 128, 129
58, 75, 130

70

71

86, 142

20

82

4:17
4:42
6:1-8
6:10-11
7:1-10
714
719
10:31
11:25
12:4-6
12:18
12:28
15:22
14:34
15:20-26
143
15:36
15:45
15:58
16:24

2 Corinthians
1:21-22
2:14
3:6
5:8
5:9-10
5:17
5:19
5:20
6:8
6:14
6:18
6:19fF
8:18
8
9:10
10:4-5
12:2
12:9
12:14
13:14
16:9

82
74

id

74

6

86

70

7

22

83

81

116

82

70

103, 138, 142,

140

12

95, 135
82

82, 83
82

22, 48
8

7

11, 82

55, 101, 108
102

12

70

v7

143

75

94

94

72, 74, 77, 99
82

95
75
82
8
