Scripture Index

82

82

96

10, 36, 141
70

él

82, 142
12, 70, 102
83

143
82

70

11, 82
142

82, 86

82, 83

68, 93

81

77, 80, 103, 143
94, 153

98

12, 81

16, 142

74

80, 83

Sf
5:8
5:ll
5315-17
5:22-23
6:1
G:1-4
6:4
6:5-9
6:17

Philippians
il

1:23

2:1

171

74

74, 84

60, 72, 130
7

75

87

75, 119,
87

75

17

82

&

82

82

42

33, 94
80, 103
94

60, 99
82, 142
74

93, 96
82

82, 86
142

82

80, 82
77

12

82

72

72

81, 85, 89
81

31, 142
72

74

74

14
