172 THE GREATNESS OF THE GREAT COMMISSION

7
75
87
75

71,94
74
82

143
82

 

2 Thessalonians
2:3-4 128
2:18-14 82

1 Timothy
1:8-10 75, 130

115-116
90

90

116

75, 90, 129
70

75

116

82

94

82

82

a

72

82

82

121, 125
7, 68, 71, 72, 125
94

 

 

115
148
78
84

H, 31, 68, 103,

80

108, 142

10

142

82

10

77, 94, 121, 125
8g

12
16
22
85
85
22
85
85
31
70
108, 142
22

96
129
72

12
70
70
74
48

82
