98

12

142, 143
75, 129
129
129

77

77

85

81

94, 103
77, 153
93

163

Scripture Index

Revelation

173

142
142

34

78, 83, 103, 142
39, 153
39, 142
96

142

39, 142
102
8,77
80

80

51

142
198

94

35

135
136
136

17

17

197
197
