39

40-48
40:39
45:15, 17
47:1-9

Daniel
2:31-35
2:31-45
7:13

713-14
7:26
9:24
9:24-27

9:25
9:26

Hosea
1:9-10
3:4-5
4:6
6:6
6:8

Amos
9:11-12

Micah
1:3-4
4:1-3

Zechariah
17-11
4:6b
8:20-23
9:7

Select Scripture Index

145 9:9

350 14

354 14:1-2

153 14:3-4

353 14:4
14:6-7
14:10-20

207

251 Malachi

211, 236, 3:1

273 3:4

207 4:5

251 4:5-6

313-317

310-324, Matthew

383 2:13

311 3:2

317, 320 5:13-16
5:17-19
6:10

170 6:35

169 7:13-14

30 7:26-27

464 8:11

lll. 8:11-12
10:23
11:11-14

169 11:12
12:25-29
12:28

472 12:28-29

201 12:29
12:45
13

259

257 15:29-30

202 13:31-32

230 13:33

553

217
468-473
47]
471-472
468
472,
473

357
326
366-369
153

213

213

131

131

258, 304
121
473-476 481
259
244, 474
229

457

215

224

217

216

414

335

339
237-240,
252

288

238, 461
238, 239
