554 HE SHALL HAVE DOMINION

13:36-39 477-479 28:20 220, 2608,
17:1-8 357 332
17:10-138 368
7:11 490
17:17 339 Mark
19:28 482-486 1:9-11 316
21:4-5 227 1:14-15 213, 500
21:37-41 347 1:15 243
21:33ff 230 8:38 339
21:40 274 9:1 215
21:42 357 9:2-8 357
21:43 229 12:30 268
22:7 472 14:58 357
23:23 519
23:32 343 Luke
23:34-35 380 1:30-33 483
23:35 343 1:32-33 211
23:36 162, 342 1:33 212
24 160-164 1:49 212
24:1-36 343-349 1:68-71 213
24:4-33 160-164 1:78-79 213
24:12 338 13:6-9 319
24:15 321 13:23 476
24:29 472 13:24-25 476
24:29-31 162, 347 13:33 202
24:30 274, 348 16:16 217
24:31 349, 386 17:20-21 217, 226,
24:34 162, 339- 242, 242

343 18:8 479482
24:36 339 18:27 451
25:5 331 18:28-30 121
25:14,19 331 21:20 345
25:21 300 22:26 485
26:64 274, 348 22:29-30 482
28:18 220 22:44-47 171
28:18-20 218, 260ff, 24:21 225

461 24:25-27 295

28:19 257, 26086, 24:46-49 256
