556

2:12-15
2:14-16
2:16
2:28-29
3:19
3:21-22
3:31
4:12, 16
4:13
5:17, 21
7:12
8:3-4
8:7-8
8:17
8:19-23
8:37
9:24-26
11:11-12
11:15
11:17-18
11:36
12
12:1-2
12:2
12:5
12:17-19
12:19
12:21

13

13:2
13:4
13:10
13:11-13
13:13
14:17
15:8-12
16:25-26

HE SHALL HAVE DOMINION

466
289
293
193
466
316
132, 140n
194
195
485
140n
520
453
460-461
300
256
170
341
267
231
498
139
263
99
358
140
139
139
139
139
139
140
213, 252
140
227
169
171

1 Corinthians
2:2
3:21-22
6:9-10
10:11
10:31
15:20-28
15:23
15:23-24

15:28
15:50
15:51-52
15:58

2 Corinthians
4:7-8
5:17
5:19
5:20
6:2
6:16-7:1
10:3-5
10:4-5

Galatians
2:16
2:21
3:7-8
3:11
3:26-28
3:28
4:4
4:9
4:246F
4:25-26
5:1

260

224

227

326

141, 263
245-248
284
277, 286,
289, 336
294

227

277

99, 301

458-459
361, 510
264i

485

215

359

257

99, 262, 513

518
518
194, 501
518
167
231
326
354
403
150, 363
518
