6:15

6:15-16
6:16

Ephesians
1:3
1:10
1:11
1:14
1:19-23
1:22
2:6

2:10
2:11
2:11-16
2:12
2:21
3:3-6
4:7-12
4:8-11
4:12-14
4:24
5:11

Philippians
2:9
2:9-11
2:12, 13
4:13, 19

Colossians
1:6, 23
1:12-13
1:18
1:27
2:9

Select Scripture Index

167, 361,
510
362
167

223
214
102, 127
299
248
222, 248
223, 256,
417, 485
362
231
171
111
501
170
221
257
224
362
131

222
291
260
260

345
223, 227,
284, 285
259
357

3:17
4:10

557

263
223

1 Thessalonians

2:12
2:14-16
4:16
4:13-17
4:13-18

293
380, 385
Q79ff, 288
387
279-281

2 Thessalonians

1:7-10
1:10
2

2:1
2:2
2:3-7
2:3-12
2:8-9

1 Timothy
1:8
1:9-11
2:6

2 Timothy
2:15
3:1
3:1-4
3:13
3:16-17

Titus
2313

Hebrews
1:1-2
1:2

253

386
383i
386

387
387-391
371, 509
391-392

520
140
268-269

30

326
491-493
491-493
99

413

277
326
