11:1-2
13:1
13:18
14:13
15
16:21
17:1
17:2-5
17:4
17:5
17:6-8
17:9
17:9-10
17:14
19:8
19:11-16
20

Select Scripture Index

407-408
375, 378
371, 375
300

411

412

381

381

382

381

378

375

412

503

382

62

51-53, 66,
69-73, 333ff,

20:1
20:1-6

20:2-7
20:4-6

20:5
20:7-9

20:11-15
21-22
21:2-5
21:9
22:6
22:10

559

385, 413-
415, 497
62, 335
286, 333-
335

50

56, 223,
415-418,
485

62

253, 418,
456

287

402

363

381

163, 420
163, 374,
