584 HE SHALL HAVE DOMINION

Worship Zion, 201, 203, 219, 326
Jewish, 216, 387, 469 Zionism (See: Eschatological
spread of, 82, 272, 512 Systems — Premillennialism
universal, 201, 208, 268 — Zionism)

Wrath of God (See:
God — wrath of)
