204

 

  

Deuteronomy
4:5-8 37
105
105
105
8:3 105
1521-5 7
19:15-20 160
19:15 86
19:19 1
25:4 86
Joshua
8-9 126
rt 33
24:15 188
I Samuel
1:1-2 14
IE Samuel
16:5-8 xviii
I Kings
2 xviii
Psalms
2:7-12 125
14:1 116
19:7 107
22:25-31 127
24:1 30

CHRISTIAN RECONSTRUCTION

25:13
32:9

32:22
821-4

83

110
119:13b
119:97a
119:119b
119:99-100
119:101-106

Proverbs

6:14
12:20
14:38
17:28
26:4
26:4-5

Ecclesiastes

12:13-14

Isaiah

2:2-4

9:1-7
1L:9
32:1-9
53
61:4-6
64:6
65:17-25

Jeremiah

55
55
55
125
76
59
16
16
16
xvi
xvii

116
116
116
166
166
165

76

127

97

127

72

101
xiii, 81
xix, 62
127

62, 116
