300

6:2-5
6:4-5
13

19:15,
19:20
20:2
20:9
20:10
11
20:12
20:13
20:15-16
20:16
20:27
219
24:14
24:16
24:17
24 1B
25:39-41
25:47-49
27:3-7

Numbers
15:35-36
22:31
26:65,

 

VICTIM’S RIGHTS

212, 281 136-11
255 13:11
159 14:21
262 15

39 16:19

61 176

61 176-7
49, 48, 44, 47, 61,195 17:7
61-62 19:16-19
62 1916-21
62 19:19
4 20:10-11
62

42, 62
46
273
42, 62
62

uy
40
226
7

273
143
62
239
239
62-63
184
63
156
47
41, 63, 117, 160, 189

 

4 Joshua
xi, 1, 55 4:7-8
253, 256, 278 5:12
5

90

8 sudges

25 1:6-7

144

227, 282
170

40

4

24, 29, 148
1g

30, 64, 273
24

106, 210
64

222
36, 146, 258
185

272

105n, 273
22n

58, 64

7

4

140

83

64

152

272

39

193-94

39

110

9, 36, 110, 262
225-26
108

108

108

274
63

113
