f Samuel
12:14
17:34-37

AT Samuel

12:4
12:5-6
12:13
12)14-18
12:18
13:29
14:14
18:14

T Kings
2:24-25,
18:21
18:40
19
21:13

Psalms
29:12-18
23:1
50:10
68:30
7333-5,
73:17-19
83

206:15

 

3
196

189
196
189
197
189
197.

197

76, 137-38
15
a7
253
195
226

Scripture Index

119:1-6,
139:7-8

Proverbs
6:31
16:6

Isaiah
6:9-10
1413-15,
17:9-10

Jeremiah
23:23-24
50:17

Ezekiel
3:17:19
34:5
Micah
41-5

Zechariah
13:7

Malachi
1:14

NEW TESTAMENT

12:30
12:36
13:15-16
16:23
18:14
18:2]-22
18:23-35,
19:7-9
20:13-15,
21:43

178
138

254
225

2

148

138
195

187
195

282

195,

244

i
137

26
195
255

34, 265
20
259-60
60, 82

301
