SCRIPTURE INDEX

OLD TESTAMENT

Exodus
22, 52 §:20-21 30, 41
10, 25 6:2 33
42 65 41
7 12:35-36 30
6 18 70
23, 26, 156 18:14 101
65 18:19-23 100
141 20:1-3 29
81 20:5-6 60
vie’ 20:12 73
118 20:17 109
50 22 117
100 23:26 76
vi)
98 Leviticus
vi) 13 88
23 14 88
152 18:5 35
153 19:16 96
"4 19:18 18
141 20:10 73
7a 24:16 4
rh)
154 Numbers
154 11:5 30
154
4127 Deuteronomy
4:6-8 147
6:5 18
41 6:6-7 73, 94, 113
29 8 119

 
