164 Liberating Planet Earth

 

  

 

Deuteronomy Poalms
8:17 42 93
8:18 42, 129, 146 93
818-20 50 46
19:19 96 53
2115-1778 53
23:24-25 123 22
24:19 123 2%
2B.1-14 30, 45, 146 3354
Joshua
517 147 9
Ruth 75, 135
119
2:3-12 12 42, 56, 79, 131,
2 Sarmuet 7
2:30 26
B:1-19 itt 113
815-17 127 145
13 88 153
153
I Kings 35
53 53
400 145
31
31
90 35
39 44
54
2 Chronicies
18:15 90 Hosea
88 13:4 35
88
88
4
Job 35
t 40
6
22 75
118 75

  
