SCRIPTURE INDEX

OLD TESTAMENT

 

Genesis Genesis
1 35f, 9:27 169
qt a5 10 101
1:5 240 1:2 88
1:8 85 11:6 43
ald 115 12:1-3 92
1:26 2 13 93
1:26-27 283 13:4 232
1:28 85 14 93
1.2888, 86 1414 177, 232
2 450, 244 14:18 232, 237

87 14188. 92

89n, 15 93

113, 223 7 93

86 17:10 99

86 1710-14 177

86, 212F. 17:12. 247

101 WAT 95

39, 91 1718-19 9

244 1 95

94n., 187f., 231,246 17:20-21 93

45H, 244 99

39 237

97 222

97 95

88 42

39, 91, 95 222

91, 244 93

95 42, 265

88 93

223 95

37 93f.

37 93

  
