Isaiah

 

Jeremiah
TA
76
Exekiel
1:10
3:17-21
47
Daniel

2:4 - 7:28
7

Matthew
10:16-21
4-37

  

Scripture Index

Daniel

295 7:5

295 7:28

239

169 Hosea

18 1:9

176 12:4-9

237 13:48

241

7 Jonah

1-4

69 Haggai

222 21-9
Zechariah

215 6:13

72 4

89, 90, 122, 216f. 14:16-21
Malachi

170 3:6

170 4:2

NEW TESTAMENT

233

233

69

233

221

187

137

280

39, 299

272

28, 122

65, 114, 300

247

237

 

10:43-44

309

170
170

295
239
239

169

102

256

102

239.
241

12
181
221
221
48,

Ww?

287n., 291

256

15n.

15n,

235, 235n,, 256
262
