342

Galatians
3:23 - 4:11
3:24f.
4:3
4:8
aT
4:8.
4108,
4:21
4:21-31
6:10

Ephesians

2

2:6
2:11-22
212
2:15
2:16
27
3114-15,

Philippians

2:15
4:2-3

Colossians

2:8
ult
2:16
2:16-17
2:20
2:21
2:22-23
4:15

2 Thessalonians

a
I Timothy
28
22
24

16
303
303
109f,
110
303
Nz
110
95f.
222

109
279
299
109
215
109
109
231

42, 265
48

303
303
303, 117
114, 240
303
on
303
234

300

219
273

The Sociology of the Church

1 Timothy
3

3:2
3:11
41-5
5:3-10
5:10
5:13
SA?

2 Timothy
1:16
4:19

Titus

1
1:8
24

Philemon
2

Hebrews
1:2

1:5

1:6
1:13
2112
4:15
521-10
5:8
S11 - 6:2
6:13-18
7-10
74-28
12:18-21
12:22ff.
12:22-23
12:22-24
12:22-25
12:23
13:2

255

221

48

207, 271
48

22If.

234

252, 254f.

234
234

255
221
299

234

232,

232
