SCRIPTURE INDEX
(Prepared by Bob Nance)

Genesis 2 Kings
15:17 128 21:12, 18 475
35:22 224n
468 294n 1 Chronicles
49 28 224n
12:24 224n
Esodus 27:16 224n
Ll 224n
13:21-22 128 Nehemiah
1419-20 128 nels 0
16-19 128
19:19 123 dob
: 12
Leviticus 22:14 8
2616 212n Peaime
2622 2120 18:7-15, 128
18:8 123
Numbers 464 170
1 224n 48:1, 8 170
2 224n 726 178n
134 224n 87:3 170
%6 224n Wd 224
wu An 97:2 128
104:3 123
Deuteronomy
4:11 123 Proverbs
2 224n 95:2 5
33:6 294n
Exclesiastes
dosha aL 5
19-22 224n
eaiah
Sudges 19, 10 170n
I 224n 1:0 24In

879
