380

11:6-9
Lo
19:1
34:1)
46:6
48:2
52:1

57:13
59:20
65:11,25

Jeremiah
31:31
32:24

Lamentations
28

Ezekiel
7:23

16:46-49

32:7-8

3425

8

Daniet
7:10
713
8:26
g
9:24,26
9:24-27
9:25

Hoses
12:3

 

Amos
78,9

212n
170

195
1780
170
m7
170
170
in
m7

Ain
1780

15

1780
1700
212n

224n

m4

129

135n,

349, 352n
185n

351

320

i7In

Win

475

BEFORE JERUSALEM FELL

Micah
1039

Nahum
1:2

Zephaniah
114,15
34
3:16

12:10

 

98

123
Win’
17In

17in
17in

1”
170
221n

247
249

221n

170
228n
58, 108

284

131

142n

129

240n

Ain

180, 175,849,350, 852
180, 181, 185n, 233
174, 186
