22:17-18
26:12-15

Exodus
3:7-8
12;29-30
12:37-38
12:40
20
20:2
20:12
20:15
20:16
20:17

SCRIPTURE INDEX

OLD TESTAMENT

92
115, 266, 382
92

69

159

159

259

314

159

5, 39, 50, 86, 391
204

9

Exodus
21:7

 

22:1-3

 

35, 84, 186
