Scripture Index 417

Deuteronomy Psalms
28:28-34 92 12:5 46, 83
19:7 21, 26
Joshua 22:27 231
1:8 21
11119-2095
14:6 161
Ruth
24-16 37
I Samuel
2:7 173
8 64, 93
8:14 34
8:15 43
8:17 43
15:22-23 199
I Kings
21 34
I Kings
4:42-44 55
HT Chronicles
71314 380
Esther
S113 141
Job
QTAGL7 95
237
234
234-35
31, 235
83
a3

  
