4i8 Productive Christians in an Age of Guilt-Manipulators

 

 

Proverbs Isaiah
8:36 342 1:11-20 199
9:10 21 B1L-23) 30

10:2-4 36 49

10:22 378 41, 380

10:30 94 231

1s 4 35

12:1 36 235

12:10 223, 278 at

12:24 36 231

13:4 36, 80 92

13:11 36 201

13:18 80 93

13:22 14, 15,95, 158, 241 32:15-18 74

13:23 225 35 93

14:30 148, 306 43:19-21 93

14:34 243 48:17 122

17:2 158 49:19-20 115

18:17 85 ait

19:15 20 157

20:10 44 192

20:13 20 65:25 233

20:23 4 .

21:25-26 80 Jeremiah

21:30 a 23-7 48

22:29-93 46 22:3-5 48

24:30-34 80 .

25:21-22 165 Baekil

a4 148 5:7-8 115

28:6 at 34:25-29 121

28:7 21 46:18 34

28:8 158 471-12 242

28:9 81 478-11 242

28:19 20 AT:21-22 48

20:20 378 Daniel

x00 * 80 2:31-45 235

713-14 235

Ecclesiastes Hosea

2:26 95 6:6 30
