Scripture Index

Exodus
20:13 7
22:2-3 5, 33
30:12-16 4

5

32:28
Numbers
25:6-14 6
35 5
35:31 33
Deuteronomy
7:16 4
17:6-7 5
21:1-9 8, 17, 29
21:6-9 9
28:15-66 10
I Samuel
15:33 6
H Samuel

12:7 35
Matthew

10:28 30

16:19 8
18:18 2-3
23:24 40
Romans
12:4 26
12:19 30
131-7 30
Galatians
5:21 6
I Timothy
4:2 20
T Peter
4:15 6
I John
1:9-11 2
Revelation
21:5-8 6
